sim/rv32i-openlane/sim/rv32i_tb.vcd
$date
	Fri Feb 20 11:43:35 2026
$end
$version
	Icarus Verilog
$end
$timescale
	1ps
$end
$scope module rv32i_tb $end
$var wire 32 ! imem_rdata [31:0] $end
$var wire 32 " imem_addr [31:0] $end
$var wire 1 # dmem_wr_en $end
$var wire 32 $ dmem_wdata [31:0] $end
$var wire 32 % dmem_rdata [31:0] $end
$var wire 1 & dmem_rd_en $end
$var wire 4 ' dmem_byte_en [3:0] $end
$var wire 32 ( dmem_addr [31:0] $end
$var parameter 88 ) INIT_FILE $end
$var parameter 32 * MAX_CYCLES $end
$var reg 1 + clk $end
$var reg 1 , rst_n $end
$var reg 1 - test_done $end
$var reg 1 . test_passed $end
$var integer 32 / cycle_count [31:0] $end
$scope module u_dut $end
$var wire 1 + clk $end
$var wire 32 0 dmem_addr [31:0] $end
$var wire 1 & dmem_rd_en $end
$var wire 1 # dmem_wr_en $end
$var wire 1 1 flush $end
$var wire 32 2 if_instruction [31:0] $end
$var wire 32 3 imem_addr [31:0] $end
$var wire 1 , rst_n $end
$var wire 1 4 stall $end
$var wire 1 5 stall_in $end
$var wire 1 6 stall_internal $end
$var wire 5 7 wb_rd_addr [4:0] $end
$var wire 32 8 wb_rd_data [31:0] $end
$var wire 1 9 wb_reg_write $end
$var wire 32 : pc_next [31:0] $end
$var wire 32 ; imem_rdata [31:0] $end
$var wire 32 < dmem_rdata [31:0] $end
$var wire 32 = de_rs2_data [31:0] $end
$var wire 5 > de_rs2_addr [4:0] $end
$var wire 32 ? de_rs1_data [31:0] $end
$var wire 5 @ de_rs1_addr [4:0] $end
$var wire 32 A de_immediate [31:0] $end
$var wire 1 B de_illegal_instr $end
$var wire 1 C de_ctrl_reg_write $end
$var wire 1 D de_ctrl_mem_write $end
$var wire 2 E de_ctrl_mem_width [1:0] $end
$var wire 1 F de_ctrl_mem_unsigned $end
$var wire 1 G de_ctrl_mem_to_reg $end
$var wire 1 H de_ctrl_mem_read $end
$var wire 1 I de_ctrl_is_lui $end
$var wire 1 J de_ctrl_is_jalr $end
$var wire 1 K de_ctrl_is_jal $end
$var wire 1 L de_ctrl_is_branch $end
$var wire 1 M de_ctrl_is_auipc $end
$var wire 1 N de_ctrl_alu_src $end
$var wire 4 O de_ctrl_alu_op [3:0] $end
$var wire 1 P de_alu_zero $end
$var wire 32 Q de_alu_result [31:0] $end
$var reg 32 R de_alu_a [31:0] $end
$var reg 32 S de_alu_b [31:0] $end
$var reg 1 T de_branch_taken $end
$var reg 32 U de_branch_target [31:0] $end
$var reg 32 V de_instruction_r [31:0] $end
$var reg 32 W de_pc_r [31:0] $end
$var reg 1 X de_valid_r $end
$var reg 4 Y dmem_byte_en [3:0] $end
$var reg 32 Z dmem_wdata [31:0] $end
$var reg 32 [ mw_alu_result_r [31:0] $end
$var reg 1 \ mw_is_jal_r $end
$var reg 1 ] mw_is_jalr_r $end
$var reg 32 ^ mw_mem_rdata_aligned [31:0] $end
$var reg 1 _ mw_mem_read_r $end
$var reg 1 ` mw_mem_to_reg_r $end
$var reg 1 a mw_mem_unsigned_r $end
$var reg 2 b mw_mem_width_r [1:0] $end
$var reg 1 c mw_mem_write_r $end
$var reg 32 d mw_pc_plus4_r [31:0] $end
$var reg 5 e mw_rd_addr_r [4:0] $end
$var reg 1 f mw_reg_write_r $end
$var reg 32 g mw_rs2_data_r [31:0] $end
$var reg 1 h mw_valid_r $end
$var reg 32 i mw_writeback_data [31:0] $end
$var reg 32 j pc_r [31:0] $end
$var reg 8 k rd_byte [7:0] $end
$var reg 16 l rd_half [15:0] $end
$scope module u_alu $end
$var wire 32 m a [31:0] $end
$var wire 32 n b [31:0] $end
$var wire 1 P zero $end
$var wire 4 o op [3:0] $end
$var reg 32 p result [31:0] $end
$upscope $end
$scope module u_control $end
$var wire 32 q instruction [31:0] $end
$var wire 7 r opcode [6:0] $end
$var wire 7 s funct7 [6:0] $end
$var wire 3 t funct3 [2:0] $end
$var reg 4 u ctrl_alu_op [3:0] $end
$var reg 1 N ctrl_alu_src $end
$var reg 1 M ctrl_is_auipc $end
$var reg 1 L ctrl_is_branch $end
$var reg 1 K ctrl_is_jal $end
$var reg 1 J ctrl_is_jalr $end
$var reg 1 I ctrl_is_lui $end
$var reg 1 H ctrl_mem_read $end
$var reg 1 G ctrl_mem_to_reg $end
$var reg 1 F ctrl_mem_unsigned $end
$var reg 2 v ctrl_mem_width [1:0] $end
$var reg 1 D ctrl_mem_write $end
$var reg 1 C ctrl_reg_write $end
$var reg 1 B illegal_instr $end
$upscope $end
$scope module u_imm_gen $end
$var wire 32 w instruction [31:0] $end
$var wire 7 x opcode [6:0] $end
$var reg 32 y immediate [31:0] $end
$upscope $end
$scope module u_regfile $end
$var wire 1 + clk $end
$var wire 5 z rs1_addr [4:0] $end
$var wire 5 { rs2_addr [4:0] $end
$var wire 1 , rst_n $end
$var wire 5 | wr_addr [4:0] $end
$var wire 32 } wr_data [31:0] $end
$var wire 1 9 wr_en $end
$var wire 32 ~ rs2_data [31:0] $end
$var wire 32 !" rs1_data [31:0] $end
$var integer 32 "" i [31:0] $end
$upscope $end
$upscope $end
$scope module u_fcov $end
$var wire 1 + clk $end
$var wire 1 T de_branch_taken $end
$var wire 4 #" de_ctrl_alu_op [3:0] $end
$var wire 1 M de_ctrl_is_auipc $end
$var wire 1 L de_ctrl_is_branch $end
$var wire 1 K de_ctrl_is_jal $end
$var wire 1 J de_ctrl_is_jalr $end
$var wire 1 I de_ctrl_is_lui $end
$var wire 1 H de_ctrl_mem_read $end
$var wire 2 $" de_ctrl_mem_width [1:0] $end
$var wire 1 D de_ctrl_mem_write $end
$var wire 1 C de_ctrl_reg_write $end
$var wire 32 %" de_instruction_r [31:0] $end
$var wire 1 X de_valid_r $end
$var wire 1 1 flush $end
$var wire 1 _ mw_mem_read_r $end
$var wire 1 c mw_mem_write_r $end
$var wire 1 h mw_valid_r $end
$var wire 1 , rst_n $end
$var wire 1 4 stall $end
$var wire 1 &" valid_instr $end
$var wire 5 '" rs2 [4:0] $end
$var wire 5 (" rs1 [4:0] $end
$var wire 5 )" rd [4:0] $end
$var wire 7 *" opcode [6:0] $end
$var wire 7 +" funct7 [6:0] $end
$var wire 3 ," funct3 [2:0] $end
$var reg 11 -" seen_alu_ops [10:0] $end
$var reg 1 ." seen_auipc $end
$var reg 1 /" seen_back_to_back_branch $end
$var reg 1 0" seen_branch $end
$var reg 1 1" seen_branch_flush $end
$var reg 6 2" seen_branch_not_taken [5:0] $end
$var reg 6 3" seen_branch_taken [5:0] $end
$var reg 1 4" seen_fence $end
$var reg 1 5" seen_i_alu $end
$var reg 1 6" seen_jal $end
$var reg 1 7" seen_jal_flush $end
$var reg 1 8" seen_jalr $end
$var reg 1 9" seen_jalr_flush $end
$var reg 1 :" seen_load $end
$var reg 1 ;" seen_load_then_branch $end
$var reg 1 <" seen_load_use_stall $end
$var reg 3 =" seen_load_width [2:0] $end
$var reg 1 >" seen_lui $end
$var reg 1 ?" seen_r_type $end
$var reg 32 @" seen_rd_written [31:0] $end
$var reg 32 A" seen_rs1_read [31:0] $end
$var reg 32 B" seen_rs2_read [31:0] $end
$var reg 1 C" seen_store $end
$var reg 3 D" seen_store_width [2:0] $end
$var reg 1 E" seen_system $end
$var integer 32 F" hit_bins [31:0] $end
$var integer 32 G" i [31:0] $end
$var integer 32 H" total_bins [31:0] $end
$scope function branch_idx $end
$var reg 3 I" f3 [2:0] $end
$upscope $end
$scope task report_coverage $end
$upscope $end
$upscope $end
$scope module u_mem $end
$var wire 1 + clk $end
$var wire 32 J" dmem_addr [31:0] $end
$var wire 4 K" dmem_byte_en [3:0] $end
$var wire 1 & dmem_rd_en $end
$var wire 32 L" dmem_wdata [31:0] $end
$var wire 1 # dmem_wr_en $end
$var wire 32 M" imem_addr [31:0] $end
$var wire 1 , rst_n $end
$var wire 32 N" imem_word_addr [31:0] $end
$var wire 32 O" imem_rdata [31:0] $end
$var wire 32 P" dmem_word_addr [31:0] $end
$var wire 32 Q" dmem_rdata [31:0] $end
$var parameter 88 R" INIT_FILE $end
$var parameter 32 S" MEM_SIZE_BYTES $end
$var parameter 32 T" NUM_WORDS $end
$scope begin $ivl_for_loop0 $end
$var integer 32 U" i [31:0] $end
$upscope $end
$upscope $end
$scope module u_sva $end
$var wire 1 + clk $end
$var wire 32 V" de_alu_result [31:0] $end
$var wire 1 T de_branch_taken $end
$var wire 32 W" de_branch_target [31:0] $end
$var wire 4 X" de_ctrl_alu_op [3:0] $end
$var wire 1 N de_ctrl_alu_src $end
$var wire 1 M de_ctrl_is_auipc $end
$var wire 1 L de_ctrl_is_branch $end
$var wire 1 K de_ctrl_is_jal $end
$var wire 1 J de_ctrl_is_jalr $end
$var wire 1 I de_ctrl_is_lui $end
$var wire 1 H de_ctrl_mem_read $end
$var wire 1 D de_ctrl_mem_write $end
$var wire 1 C de_ctrl_reg_write $end
$var wire 32 Y" de_instruction_r [31:0] $end
$var wire 32 Z" de_pc_r [31:0] $end
$var wire 1 X de_valid_r $end
$var wire 32 [" dmem_addr [31:0] $end
$var wire 4 \" dmem_byte_en [3:0] $end
$var wire 1 & dmem_rd_en $end
$var wire 1 # dmem_wr_en $end
$var wire 1 1 flush $end
$var wire 32 ]" mw_alu_result_r [31:0] $end
$var wire 1 _ mw_mem_read_r $end
$var wire 1 c mw_mem_write_r $end
$var wire 5 ^" mw_rd_addr_r [4:0] $end
$var wire 1 f mw_reg_write_r $end
$var wire 1 h mw_valid_r $end
$var wire 32 _" pc_next [31:0] $end
$var wire 32 `" pc_r [31:0] $end
$var wire 1 , rst_n $end
$var wire 1 4 stall $end
$var reg 1 a" past_valid $end
$var reg 1 b" prev_de_branch_taken $end
$var reg 32 c" prev_de_branch_target [31:0] $end
$var reg 32 d" prev_de_instruction [31:0] $end
$var reg 1 e" prev_de_valid $end
$var reg 1 f" prev_flush $end
$var reg 32 g" prev_pc [31:0] $end
$var reg 1 h" prev_rst_n $end
$var reg 1 i" prev_stall $end
$var integer 32 j" assert_fail [31:0] $end
$var integer 32 k" assert_pass [31:0] $end
$scope task report_assertions $end
$upscope $end
$upscope $end
$scope begin $ivl_for_loop1 $end
$var integer 32 l" i [31:0] $end
$upscope $end
$upscope $end
$enddefinitions $end
$comment Show the parameter values. $end
$dumpall
b100000000000000 T"
b10000000000000000 S"
b111000001110010011011110110011101110010011000010110110100101110011010000110010101111000 R"
b10011100010000 *
b111000001110010011011110110011101110010011000010110110100101110011010000110010101111000 )
$end
#0
$dumpvars
b0 l"
b0 k"
b0 j"
xi"
0h"
bx g"
xf"
xe"
bx d"
bx c"
xb"
0a"
b0 `"
b100 _"
b0 ^"
b0 ]"
b1111 \"
b0 ["
b0 Z"
b10011 Y"
b0 X"
b0 W"
b0 V"
b100000000000000 U"
b0 Q"
b0 P"
b11111111000000000000111110010011 O"
b0 N"
b0 M"
b0 L"
b1111 K"
b0 J"
bx I"
bx H"
bx G"
bx F"
xE"
bx D"
xC"
bx B"
bx A"
bx @"
x?"
x>"
bx ="
x<"
x;"
x:"
x9"
x8"
x7"
x6"
x5"
x4"
bx 3"
bx 2"
x1"
x0"
x/"
x."
bx -"
b0 ,"
b0 +"
b10011 *"
b0 )"
b0 ("
b0 '"
0&"
b10011 %"
b10 $"
b0 #"
b100000 ""
b0 !"
b0 ~
b0 }
b0 |
b0 {
b0 z
b0 y
b10011 x
b10011 w
b10 v
b0 u
b0 t
b0 s
b10011 r
b10011 q
b0 p
b0 o
b0 n
b0 m
b0 l
b0 k
b0 j
b0 i
0h
b0 g
0f
b0 e
b0 d
0c
b10 b
0a
0`
0_
b0 ^
0]
0\
b0 [
b0 Z
b1111 Y
0X
b0 W
b10011 V
b0 U
0T
b0 S
b0 R
b0 Q
1P
b0 O
1N
0M
0L
0K
0J
0I
0H
0G
0F
b10 E
0D
1C
0B
b0 A
b0 @
b0 ?
b0 >
b0 =
b0 <
b11111111000000000000111110010011 ;
b100 :
09
b0 8
b0 7
06
05
04
b0 3
b11111111000000000000111110010011 2
01
b0 0
b0 /
0.
0-
0,
0+
b0 (
b1111 '
0&
b0 %
b0 $
0#
b0 "
b11111111000000000000111110010011 !
$end
#5000
0b"
0e"
0f"
0i"
b0 c"
b10011 d"
b0 g"
0E"
04"
0."
0>"
08"
06"
00"
0C"
0:"
05"
0?"
b0 -"
b0 2"
b0 3"
b0 D"
b0 ="
0;"
0/"
09"
07"
01"
0<"
b0 B"
b0 A"
b0 @"
b100000 ""
1+
#10000
0+
#15000
b100000 ""
1+
#20000
0+
#25000
b100000 ""
1+
#30000
0+
#35000
b100000 ""
1+
#40000
0+
#45000
0P
b11111111111111111111111111110000 Q
b11111111111111111111111111110000 p
b11111111111111111111111111110000 V"
1C
1N
b11111111111111111111111111110000 S
b11111111111111111111111111110000 n
b11111111111111111111111111110000 U
b11111111111111111111111111110000 W"
b1000 :
b1000 _"
b10111100110111 2
b10111100110111 !
b10111100110111 ;
b10111100110111 O"
1&"
b10000 >
b10000 {
b1111111 s
b11111111111111111111111111110000 A
b11111111111111111111111111110000 y
b1111111 +"
b11111 )"
b10000 '"
b1 N"
b100 d
1X
b11111111000000000000111110010011 V
b11111111000000000000111110010011 q
b11111111000000000000111110010011 w
b11111111000000000000111110010011 %"
b11111111000000000000111110010011 Y"
b100 "
b100 3
b100 M"
b100 j
b100 `"
1h"
1,
1+
#50000
0+
#55000
0P
b10000000000000 Q
b10000000000000 p
b10000000000000 V"
b1100 :
b1100 _"
b1111010101100000000000010010011 2
b1111010101100000000000010010011 !
b1111010101100000000000010010011 ;
b1111010101100000000000010010011 O"
1I
b1010 O
b1010 o
b1010 u
b1010 #"
b1010 X"
1C
1N
b10000000000000 S
b10000000000000 n
b10 N"
b0 >
b0 {
b110111 r
b10 t
b0 s
b10000000000000 A
b10000000000000 y
b110111 x
b110111 *"
b10 ,"
b0 +"
b11110 )"
b0 '"
b10000000000100 U
b10000000000100 W"
19
b11111111111111111111111111110000 8
b11111111111111111111111111110000 i
b11111111111111111111111111110000 }
b1111 '
b1111 Y
b1111 K"
b1111 \"
b111111111111111111111111111100 P"
b1000 "
b1000 3
b1000 M"
b1000 j
b1000 `"
b10111100110111 V
b10111100110111 q
b10111100110111 w
b10111100110111 %"
b10111100110111 Y"
b100 W
b100 Z"
1h
1f
b11111 7
b11111 |
b11111 e
b11111 ^"
b11111111111111111111111111110000 (
b11111111111111111111111111110000 0
b11111111111111111111111111110000 J"
b11111111111111111111111111110000 ["
b11111111111111111111111111110000 [
b11111111111111111111111111110000 ]"
b10000000000000000 B"
b1 A"
b10000000000000000000000000000000 @"
b1 -"
15"
1a"
1e"
b11111111111111111111111111110000 c"
b11111111000000000000111110010011 d"
b100 g"
b1 /
1+
#60000
0+
#65000
0P
b11110101011 Q
b11110101011 p
b11110101011 V"
0I
1C
1N
b0 O
b0 o
b0 u
b0 #"
b0 X"
b11110101011 S
b11110101011 n
b10000 :
b10000 _"
b111110010000000100011 2
b111110010000000100011 !
b111110010000000100011 ;
b111110010000000100011 O"
b10000000000000 8
b10000000000000 i
b10000000000000 }
b1111 '
b1111 Y
b1111 K"
b1111 \"
b100000000000 P"
b1011 >
b1011 {
b10011 r
b0 t
b111101 s
b11110101011 A
b11110101011 y
b10011 x
b10011 *"
b0 ,"
b111101 +"
b1 )"
b1011 '"
b11110110011 U
b11110110011 W"
b11 N"
b11110 7
b11110 |
b11110 e
b11110 ^"
b1000 d
b10000000000000 (
b10000000000000 0
b10000000000000 J"
b10000000000000 ["
b10000000000000 [
b10000000000000 ]"
b1111010101100000000000010010011 V
b1111010101100000000000010010011 q
b1111010101100000000000010010011 w
b1111010101100000000000010010011 %"
b1111010101100000000000010010011 Y"
b1000 W
b1000 Z"
b1100 "
b1100 3
b1100 M"
b1100 j
b1100 `"
b10000000000100 c"
b10111100110111 d"
b1000 g"
1>"
b11000000000000000000000000000000 @"
b110 k"
b10 /
1+
#70000
0+
#75000
b11110101011 =
b11110101011 ~
b10000000000000 R
b10000000000000 m
0P
b10000000000000 Q
b10000000000000 p
b10000000000000 V"
b10100 :
b10100 _"
b11110010000100000011 2
b11110010000100000011 !
b11110010000100000011 ;
b11110010000100000011 O"
b10000000000000 ?
b10000000000000 !"
1D
0C
1N
b0 S
b0 n
b100 N"
b11110 @
b11110 z
b1 >
b1 {
b100011 r
b10 t
b0 s
b0 A
b0 y
b100011 x
b100011 *"
b10 ,"
b0 +"
b0 )"
b11110 ("
b1 '"
b1100 U
b1100 W"
b11110101011 8
b11110101011 i
b11110101011 }
b1111 '
b1111 Y
b1111 K"
b1111 \"
b111101010 P"
b10000 "
b10000 3
b10000 M"
b10000 j
b10000 `"
b111110010000000100011 V
b111110010000000100011 q
b111110010000000100011 w
b111110010000000100011 %"
b111110010000000100011 Y"
b1100 W
b1100 Z"
b1 7
b1 |
b1 e
b1 ^"
b1100 d
b11110101011 (
b11110101011 0
b11110101011 J"
b11110101011 ["
b11110101011 [
b11110101011 ]"
b10000100000000000 B"
b11000000000000000000000000000010 @"
b11110110011 c"
b1111010101100000000000010010011 d"
b1100 g"
b11 /
b1100 k"
1+
#80000
0+
#85000
b0 =
b0 ~
1G
1H
1C
0D
1N
b11000 :
b11000 _"
b1110001000001001000001100011 2
b1110001000001001000001100011 !
b1110001000001001000001100011 ;
b1110001000001001000001100011 O"
09
b10000000000000 8
b10000000000000 i
b10000000000000 }
b11110101011 $
b11110101011 Z
b11110101011 L"
b1111 '
b1111 Y
b1111 K"
b1111 \"
b100000000000 P"
b0 >
b0 {
b11 r
b11 x
b11 *"
b10 )"
b0 '"
b10000 U
b10000 W"
b101 N"
1#
1c
0f
b0 7
b0 |
b0 e
b0 ^"
b10000 d
b11110101011 g
b10000000000000 (
b10000000000000 0
b10000000000000 J"
b10000000000000 ["
b10000000000000 [
b10000000000000 ]"
b11110010000100000011 V
b11110010000100000011 q
b11110010000100000011 w
b11110010000100000011 %"
b11110010000100000011 Y"
b10000 W
b10000 Z"
b10100 "
b10100 3
b10100 M"
b10100 j
b10100 `"
b1100 c"
b111110010000000100011 d"
b10000 g"
1C"
b100 D"
b10000100000000010 B"
b1000000000000000000000000000001 A"
b10010 k"
b100 /
1+
#90000
0+
#95000
b11110101011 =
b11110101011 ~
01
14
b11110101011 R
b11110101011 m
16
b11110101011 ?
b11110101011 !"
0T
1P
b0 Q
b0 p
b0 V"
b11110101011 ^
b11000 :
b11000 _"
b11111111111100000000000010010011 2
b11111111111100000000000010010011 !
b11111111111100000000000010010011 ;
b11111111111100000000000010010011 O"
b1 O
b1 o
b1 u
b1 #"
b1 X"
1L
0G
0H
0C
0N
b11110101011 S
b11110101011 n
b11110101011 %
b11110101011 <
b11110101011 Q"
b110 N"
b1 @
b1 z
b10 >
b10 {
b1100011 r
b1 t
b111 s
b11100000 A
b11100000 y
b1100011 x
b1100011 *"
b1 ,"
b111 +"
b0 )"
b1 ("
b10 '"
b11110100 U
b11110100 W"
19
b11110101011 8
b11110101011 i
b11110101011 }
b0 $
b0 Z
b0 L"
b1111 '
b1111 Y
b1111 K"
b1111 \"
b11000 "
b11000 3
b11000 M"
b11000 j
b11000 `"
b1110001000001001000001100011 V
b1110001000001001000001100011 q
b1110001000001001000001100011 w
b1110001000001001000001100011 %"
b1110001000001001000001100011 Y"
b10100 W
b10100 Z"
1`
0#
0c
1&
1_
1f
b10 7
b10 |
b10 e
b10 ^"
b10100 d
b0 g
b10000100000000011 B"
b11000000000000000000000000000110 @"
b100 ="
1:"
b10000 c"
b11110010000100000011 d"
b10100 g"
b101 /
b11010 k"
1+
#100000
0+
#105000
b11100 :
b11100 _"
04
b0 8
b0 i
b0 }
06
b0 ^
b0 %
b0 <
b0 Q"
09
0&
0_
0f
0h
1i"
b11110100 c"
b1110001000001001000001100011 d"
b11000 g"
10"
b10 2"
1;"
1<"
b10000100000000111 B"
b1000000000000000000000000000011 A"
b100010 k"
b1 I"
b110 /
1+
#110000
0+
#115000
b11111111111111111111111111110000 =
b11111111111111111111111111110000 ~
b11111111111111111111111111111111 S
b11111111111111111111111111111111 n
b0 R
b0 m
0P
b11111111111111111111111111111111 Q
b11111111111111111111111111111111 p
b11111111111111111111111111111111 V"
01
b100000 :
b100000 _"
b111110010001000100011 2
b111110010001000100011 !
b111110010001000100011 ;
b111110010001000100011 O"
b0 ?
b0 !"
1N
1C
0L
b0 O
b0 o
b0 u
b0 #"
b0 X"
b111 N"
b0 @
b0 z
b11111 >
b11111 {
b10011 r
b0 t
b1111111 s
b11111111111111111111111111111111 A
b11111111111111111111111111111111 y
b10011 x
b10011 *"
b0 ,"
b1111111 +"
b1 )"
b0 ("
b11111 '"
0T
b10111 U
b10111 W"
b11110101011 $
b11110101011 Z
b11110101011 L"
b1111 '
b1111 Y
b1111 K"
b1111 \"
b0 P"
b11100 "
b11100 3
b11100 M"
b11100 j
b11100 `"
b11111111111100000000000010010011 V
b11111111111100000000000010010011 q
b11111111111100000000000010010011 w
b11111111111100000000000010010011 %"
b11111111111100000000000010010011 Y"
b11000 W
b11000 Z"
1h
0`
b0 7
b0 |
b0 e
b0 ^"
b11000 d
b11110101011 g
b0 (
b0 0
b0 J"
b0 ["
b0 [
b0 ]"
0i"
b111 /
b101011 k"
1+
#120000
0+
#125000
b11111111111111111111111111111111 =
b11111111111111111111111111111111 ~
b10000000000000 R
b10000000000000 m
0P
b10000000000100 Q
b10000000000100 p
b10000000000100 V"
b10000000000000 ?
b10000000000000 !"
1D
0C
1N
b100 S
b100 n
b100100 :
b100100 _"
b10011110010000100000011 2
b10011110010000100000011 !
b10011110010000100000011 ;
b10011110010000100000011 O"
19
b11111111111111111111111111111111 8
b11111111111111111111111111111111 i
b11111111111111111111111111111111 }
b11111111111111111111111111110000 $
b11111111111111111111111111110000 Z
b11111111111111111111111111110000 L"
b1111 '
b1111 Y
b1111 K"
b1111 \"
b111111111111111111111111111111 P"
b11110 @
b11110 z
b1 >
b1 {
b100011 r
b10 t
b0 s
b100 A
b100 y
b100011 x
b100011 *"
b10 ,"
b0 +"
b100 )"
b11110 ("
b1 '"
b100000 U
b100000 W"
b1000 N"
1f
b1 7
b1 |
b1 e
b1 ^"
b11100 d
b11111111111111111111111111110000 g
b11111111111111111111111111111111 (
b11111111111111111111111111111111 0
b11111111111111111111111111111111 J"
b11111111111111111111111111111111 ["
b11111111111111111111111111111111 [
b11111111111111111111111111111111 ]"
b111110010001000100011 V
b111110010001000100011 q
b111110010001000100011 w
b111110010001000100011 %"
b111110010001000100011 Y"
b11100 W
b11100 Z"
b100000 "
b100000 3
b100000 M"
b100000 j
b100000 `"
b10111 c"
b11111111111100000000000010010011 d"
b11100 g"
b10000000000000010000100000000111 B"
b110001 k"
b1000 /
1+
#130000
0+
#135000
b0 =
b0 ~
b101000 :
b101000 _"
b1100001000001001100001100011 2
b1100001000001001100001100011 !
b1100001000001001100001100011 ;
b1100001000001001100001100011 O"
1G
1H
1C
0D
1N
b1001 N"
b100 >
b100 {
b11 r
b100 A
b100 y
b11 x
b11 *"
b10 )"
b100 '"
b100100 U
b100100 W"
09
b10000000000100 8
b10000000000100 i
b10000000000100 }
b11111111111111111111111111111111 $
b11111111111111111111111111111111 Z
b11111111111111111111111111111111 L"
b1111 '
b1111 Y
b1111 K"
b1111 \"
b100000000001 P"
b100100 "
b100100 3
b100100 M"
b100100 j
b100100 `"
b10011110010000100000011 V
b10011110010000100000011 q
b10011110010000100000011 w
b10011110010000100000011 %"
b10011110010000100000011 Y"
b100000 W
b100000 Z"
1#
1c
0f
b100 7
b100 |
b100 e
b100 ^"
b100000 d
b11111111111111111111111111111111 g
b10000000000100 (
b10000000000100 0
b10000000000100 J"
b10000000000100 ["
b10000000000100 [
b10000000000100 ]"
b100000 c"
b111110010001000100011 d"
b100000 g"
b1001 /
b110111 k"
1+
#140000
0+
#145000
14
01
16
b11111111111111111111111111111111 R
b11111111111111111111111111111111 m
b11111111111111111111111111111111 ^
b11111111111111111111111111111111 ?
b11111111111111111111111111111111 !"
b11111111111111111111111111111111 =
b11111111111111111111111111111111 ~
0T
1P
b0 Q
b0 p
b0 V"
b11111111111111111111111111111111 %
b11111111111111111111111111111111 <
b11111111111111111111111111111111 Q"
b1 O
b1 o
b1 u
b1 #"
b1 X"
1L
0G
0H
0C
0N
b11111111111111111111111111111111 S
b11111111111111111111111111111111 n
b101000 :
b101000 _"
b10101011110011010001000010110111 2
b10101011110011010001000010110111 !
b10101011110011010001000010110111 ;
b10101011110011010001000010110111 O"
19
b11111111111111111111111111111111 8
b11111111111111111111111111111111 i
b11111111111111111111111111111111 }
b0 $
b0 Z
b0 L"
b1111 '
b1111 Y
b1111 K"
b1111 \"
b1 @
b1 z
b10 >
b10 {
b1100011 r
b1 t
b110 s
b11010000 A
b11010000 y
b1100011 x
b1100011 *"
b1 ,"
b110 +"
b10000 )"
b1 ("
b10 '"
b11110100 U
b11110100 W"
b1010 N"
1`
0#
0c
1&
1_
1f
b10 7
b10 |
b10 e
b10 ^"
b100100 d
b0 g
b1100001000001001100001100011 V
b1100001000001001100001100011 q
b1100001000001001100001100011 w
b1100001000001001100001100011 %"
b1100001000001001100001100011 Y"
b100100 W
b100100 Z"
b101000 "
b101000 3
b101000 M"
b101000 j
b101000 `"
b100100 c"
b10011110010000100000011 d"
b100100 g"
b10000000000000010000100000010111 B"
b111111 k"
b1010 /
1+
#150000
0+
#155000
b101100 :
b101100 _"
04
b0 8
b0 i
b0 }
06
b0 ^
b0 %
b0 <
b0 Q"
09
0&
0_
0f
0h
1i"
b11110100 c"
b1100001000001001100001100011 d"
b101000 g"
b1011 /
b1000111 k"
1+
#160000
0+
#165000
b0 R
b0 m
b0 ?
b0 !"
b0 =
b0 ~
b10101011110011010001000000000000 S
b10101011110011010001000000000000 n
0P
b10101011110011010001000000000000 Q
b10101011110011010001000000000000 p
b10101011110011010001000000000000 V"
1I
1N
1C
0L
b1010 O
b1010 o
b1010 u
b1010 #"
b1010 X"
b110000 :
b110000 _"
b100011010000001000000010010011 2
b100011010000001000000010010011 !
b100011010000001000000010010011 ;
b100011010000001000000010010011 O"
b11111111111111111111111111111111 $
b11111111111111111111111111111111 Z
b11111111111111111111111111111111 L"
b1111 '
b1111 Y
b1111 K"
b1111 \"
b0 P"
b11010 @
b11010 z
b11100 >
b11100 {
b110111 r
b1010101 s
b10101011110011010001000000000000 A
b10101011110011010001000000000000 y
b110111 x
b110111 *"
b1010101 +"
b1 )"
b11010 ("
b11100 '"
b10101011110011010001000000101000 U
b10101011110011010001000000101000 W"
b1011 N"
1h
0`
b10000 7
b10000 |
b10000 e
b10000 ^"
b101000 d
b11111111111111111111111111111111 g
b0 (
b0 0
b0 J"
b0 ["
b0 [
b0 ]"
b10101011110011010001000010110111 V
b10101011110011010001000010110111 q
b10101011110011010001000010110111 w
b10101011110011010001000010110111 %"
b10101011110011010001000010110111 Y"
b101000 W
b101000 Z"
b101100 "
b101100 3
b101100 M"
b101100 j
b101100 `"
0i"
b1010000 k"
b1100 /
1+
#170000
0+
#175000
b10101011110011010001000000000000 R
b10101011110011010001000000000000 m
b10101011110011010001000000000000 ?
b10101011110011010001000000000000 !"
0P
b10101011110011010001001000110100 Q
b10101011110011010001001000110100 p
b10101011110011010001001000110100 V"
b110100 :
b110100 _"
b111110010010000100011 2
b111110010010000100011 !
b111110010010000100011 ;
b111110010010000100011 O"
0I
1C
1N
b0 O
b0 o
b0 u
b0 #"
b0 X"
b1000110100 S
b1000110100 n
b1100 N"
b1 @
b1 z
b10100 >
b10100 {
b10011 r
b0 t
b10001 s
b1000110100 A
b1000110100 y
b10011 x
b10011 *"
b0 ,"
b10001 +"
b1 ("
b10100 '"
b1001100000 U
b1001100000 W"
19
b10101011110011010001000000000000 8
b10101011110011010001000000000000 i
b10101011110011010001000000000000 }
b0 $
b0 Z
b0 L"
b1111 '
b1111 Y
b1111 K"
b1111 \"
b101010111100110100010000000000 P"
b110000 "
b110000 3
b110000 M"
b110000 j
b110000 `"
b100011010000001000000010010011 V
b100011010000001000000010010011 q
b100011010000001000000010010011 w
b100011010000001000000010010011 %"
b100011010000001000000010010011 Y"
b101100 W
b101100 Z"
1f
b1 7
b1 |
b1 e
b1 ^"
b101100 d
b0 g
b10101011110011010001000000000000 (
b10101011110011010001000000000000 0
b10101011110011010001000000000000 J"
b10101011110011010001000000000000 ["
b10101011110011010001000000000000 [
b10101011110011010001000000000000 ]"
b1000100000000000000000000000011 A"
b10101011110011010001000000101000 c"
b10101011110011010001000010110111 d"
b101100 g"
b1101 /
b1010110 k"
1+
#180000
0+
