sim/rv32i_tb.vcd
$date
	Fri Feb 20 11:44:51 2026
$end
$version
	Icarus Verilog
$end
$timescale
	1ps
$end
$scope module rv32i_tb $end
$var wire 32 ! imem_rdata [31:0] $end
$var wire 32 " imem_addr [31:0] $end
$var wire 1 # dmem_wr_en $end
$var wire 32 $ dmem_wdata [31:0] $end
$var wire 32 % dmem_rdata [31:0] $end
$var wire 1 & dmem_rd_en $end
$var wire 4 ' dmem_byte_en [3:0] $end
$var wire 32 ( dmem_addr [31:0] $end
$var parameter 88 ) INIT_FILE $end
$var parameter 32 * MAX_CYCLES $end
$var reg 1 + clk $end
$var reg 1 , rst_n $end
$var reg 1 - test_done $end
$var reg 1 . test_passed $end
$var integer 32 / cycle_count [31:0] $end
$scope module u_dut $end
$var wire 1 + clk $end
$var wire 32 0 dmem_addr [31:0] $end
$var wire 1 & dmem_rd_en $end
$var wire 1 # dmem_wr_en $end
$var wire 1 1 flush $end
$var wire 32 2 if_instruction [31:0] $end
$var wire 32 3 imem_addr [31:0] $end
$var wire 1 , rst_n $end
$var wire 1 4 stall $end
$var wire 1 5 stall_in $end
$var wire 1 6 stall_internal $end
$var wire 5 7 wb_rd_addr [4:0] $end
$var wire 32 8 wb_rd_data [31:0] $end
$var wire 1 9 wb_reg_write $end
$var wire 32 : pc_next [31:0] $end
$var wire 32 ; imem_rdata [31:0] $end
$var wire 32 < dmem_rdata [31:0] $end
$var wire 32 = de_rs2_data [31:0] $end
$var wire 5 > de_rs2_addr [4:0] $end
$var wire 32 ? de_rs1_data [31:0] $end
$var wire 5 @ de_rs1_addr [4:0] $end
$var wire 32 A de_immediate [31:0] $end
$var wire 1 B de_illegal_instr $end
$var wire 1 C de_ctrl_reg_write $end
$var wire 1 D de_ctrl_mem_write $end
$var wire 2 E de_ctrl_mem_width [1:0] $end
$var wire 1 F de_ctrl_mem_unsigned $end
$var wire 1 G de_ctrl_mem_to_reg $end
$var wire 1 H de_ctrl_mem_read $end
$var wire 1 I de_ctrl_is_lui $end
$var wire 1 J de_ctrl_is_jalr $end
$var wire 1 K de_ctrl_is_jal $end
$var wire 1 L de_ctrl_is_branch $end
$var wire 1 M de_ctrl_is_auipc $end
$var wire 1 N de_ctrl_alu_src $end
$var wire 4 O de_ctrl_alu_op [3:0] $end
$var wire 1 P de_alu_zero $end
$var wire 32 Q de_alu_result [31:0] $end
$var reg 32 R de_alu_a [31:0] $end
$var reg 32 S de_alu_b [31:0] $end
$var reg 1 T de_branch_taken $end
$var reg 32 U de_branch_target [31:0] $end
$var reg 32 V de_instruction_r [31:0] $end
$var reg 32 W de_pc_r [31:0] $end
$var reg 1 X de_valid_r $end
$var reg 4 Y dmem_byte_en [3:0] $end
$var reg 32 Z dmem_wdata [31:0] $end
$var reg 32 [ mw_alu_result_r [31:0] $end
$var reg 1 \ mw_is_jal_r $end
$var reg 1 ] mw_is_jalr_r $end
$var reg 32 ^ mw_mem_rdata_aligned [31:0] $end
$var reg 1 _ mw_mem_read_r $end
$var reg 1 ` mw_mem_to_reg_r $end
$var reg 1 a mw_mem_unsigned_r $end
$var reg 2 b mw_mem_width_r [1:0] $end
$var reg 1 c mw_mem_write_r $end
$var reg 32 d mw_pc_plus4_r [31:0] $end
$var reg 5 e mw_rd_addr_r [4:0] $end
$var reg 1 f mw_reg_write_r $end
$var reg 32 g mw_rs2_data_r [31:0] $end
$var reg 1 h mw_valid_r $end
$var reg 32 i mw_writeback_data [31:0] $end
$var reg 32 j pc_r [31:0] $end
$var reg 8 k rd_byte [7:0] $end
$var reg 16 l rd_half [15:0] $end
$scope module u_alu $end
$var wire 32 m a [31:0] $end
$var wire 32 n b [31:0] $end
$var wire 1 P zero $end
$var wire 4 o op [3:0] $end
$var reg 32 p result [31:0] $end
$upscope $end
$scope module u_control $end
$var wire 32 q instruction [31:0] $end
$var wire 7 r opcode [6:0] $end
$var wire 7 s funct7 [6:0] $end
$var wire 3 t funct3 [2:0] $end
$var reg 4 u ctrl_alu_op [3:0] $end
$var reg 1 N ctrl_alu_src $end
$var reg 1 M ctrl_is_auipc $end
$var reg 1 L ctrl_is_branch $end
$var reg 1 K ctrl_is_jal $end
$var reg 1 J ctrl_is_jalr $end
$var reg 1 I ctrl_is_lui $end
$var reg 1 H ctrl_mem_read $end
$var reg 1 G ctrl_mem_to_reg $end
$var reg 1 F ctrl_mem_unsigned $end
$var reg 2 v ctrl_mem_width [1:0] $end
$var reg 1 D ctrl_mem_write $end
$var reg 1 C ctrl_reg_write $end
$var reg 1 B illegal_instr $end
$upscope $end
$scope module u_imm_gen $end
$var wire 32 w instruction [31:0] $end
$var wire 7 x opcode [6:0] $end
$var reg 32 y immediate [31:0] $end
$upscope $end
$scope module u_regfile $end
$var wire 1 + clk $end
$var wire 5 z rs1_addr [4:0] $end
$var wire 5 { rs2_addr [4:0] $end
$var wire 1 , rst_n $end
$var wire 5 | wr_addr [4:0] $end
$var wire 32 } wr_data [31:0] $end
$var wire 1 9 wr_en $end
$var wire 32 ~ rs2_data [31:0] $end
$var wire 32 !" rs1_data [31:0] $end
$var integer 32 "" i [31:0] $end
$upscope $end
$upscope $end
$scope module u_fcov $end
$var wire 1 + clk $end
$var wire 1 T de_branch_taken $end
$var wire 4 #" de_ctrl_alu_op [3:0] $end
$var wire 1 M de_ctrl_is_auipc $end
$var wire 1 L de_ctrl_is_branch $end
$var wire 1 K de_ctrl_is_jal $end
$var wire 1 J de_ctrl_is_jalr $end
$var wire 1 I de_ctrl_is_lui $end
$var wire 1 H de_ctrl_mem_read $end
$var wire 2 $" de_ctrl_mem_width [1:0] $end
$var wire 1 D de_ctrl_mem_write $end
$var wire 1 C de_ctrl_reg_write $end
$var wire 32 %" de_instruction_r [31:0] $end
$var wire 1 X de_valid_r $end
$var wire 1 1 flush $end
$var wire 1 _ mw_mem_read_r $end
$var wire 1 c mw_mem_write_r $end
$var wire 1 h mw_valid_r $end
$var wire 1 , rst_n $end
$var wire 1 4 stall $end
$var wire 1 &" valid_instr $end
$var wire 5 '" rs2 [4:0] $end
$var wire 5 (" rs1 [4:0] $end
$var wire 5 )" rd [4:0] $end
$var wire 7 *" opcode [6:0] $end
$var wire 7 +" funct7 [6:0] $end
$var wire 3 ," funct3 [2:0] $end
$var reg 11 -" seen_alu_ops [10:0] $end
$var reg 1 ." seen_auipc $end
$var reg 1 /" seen_back_to_back_branch $end
$var reg 1 0" seen_branch $end
$var reg 1 1" seen_branch_flush $end
$var reg 6 2" seen_branch_not_taken [5:0] $end
$var reg 6 3" seen_branch_taken [5:0] $end
$var reg 1 4" seen_fence $end
$var reg 1 5" seen_i_alu $end
$var reg 1 6" seen_jal $end
$var reg 1 7" seen_jal_flush $end
$var reg 1 8" seen_jalr $end
$var reg 1 9" seen_jalr_flush $end
$var reg 1 :" seen_load $end
$var reg 1 ;" seen_load_then_branch $end
$var reg 1 <" seen_load_use_stall $end
$var reg 3 =" seen_load_width [2:0] $end
$var reg 1 >" seen_lui $end
$var reg 1 ?" seen_r_type $end
$var reg 32 @" seen_rd_written [31:0] $end
$var reg 32 A" seen_rs1_read [31:0] $end
$var reg 32 B" seen_rs2_read [31:0] $end
$var reg 1 C" seen_store $end
$var reg 3 D" seen_store_width [2:0] $end
$var reg 1 E" seen_system $end
$var integer 32 F" hit_bins [31:0] $end
$var integer 32 G" i [31:0] $end
$var integer 32 H" total_bins [31:0] $end
$scope function branch_idx $end
$var reg 3 I" f3 [2:0] $end
$upscope $end
$scope task report_coverage $end
$upscope $end
$upscope $end
$scope module u_mem $end
$var wire 1 + clk $end
$var wire 32 J" dmem_addr [31:0] $end
$var wire 4 K" dmem_byte_en [3:0] $end
$var wire 1 & dmem_rd_en $end
$var wire 32 L" dmem_wdata [31:0] $end
$var wire 1 # dmem_wr_en $end
$var wire 32 M" imem_addr [31:0] $end
$var wire 1 , rst_n $end
$var wire 32 N" imem_word_addr [31:0] $end
$var wire 32 O" imem_rdata [31:0] $end
$var wire 32 P" dmem_word_addr [31:0] $end
$var wire 32 Q" dmem_rdata [31:0] $end
$var parameter 88 R" INIT_FILE $end
$var parameter 32 S" MEM_SIZE_BYTES $end
$var parameter 32 T" NUM_WORDS $end
$scope begin $ivl_for_loop0 $end
$var integer 32 U" i [31:0] $end
$upscope $end
$upscope $end
$scope module u_sva $end
$var wire 1 + clk $end
$var wire 32 V" de_alu_result [31:0] $end
$var wire 1 T de_branch_taken $end
$var wire 32 W" de_branch_target [31:0] $end
$var wire 4 X" de_ctrl_alu_op [3:0] $end
$var wire 1 N de_ctrl_alu_src $end
$var wire 1 M de_ctrl_is_auipc $end
$var wire 1 L de_ctrl_is_branch $end
$var wire 1 K de_ctrl_is_jal $end
$var wire 1 J de_ctrl_is_jalr $end
$var wire 1 I de_ctrl_is_lui $end
$var wire 1 H de_ctrl_mem_read $end
$var wire 1 D de_ctrl_mem_write $end
$var wire 1 C de_ctrl_reg_write $end
$var wire 32 Y" de_instruction_r [31:0] $end
$var wire 32 Z" de_pc_r [31:0] $end
$var wire 1 X de_valid_r $end
$var wire 32 [" dmem_addr [31:0] $end
$var wire 4 \" dmem_byte_en [3:0] $end
$var wire 1 & dmem_rd_en $end
$var wire 1 # dmem_wr_en $end
$var wire 1 1 flush $end
$var wire 32 ]" mw_alu_result_r [31:0] $end
$var wire 1 _ mw_mem_read_r $end
$var wire 1 c mw_mem_write_r $end
$var wire 5 ^" mw_rd_addr_r [4:0] $end
$var wire 1 f mw_reg_write_r $end
$var wire 1 h mw_valid_r $end
$var wire 32 _" pc_next [31:0] $end
$var wire 32 `" pc_r [31:0] $end
$var wire 1 , rst_n $end
$var wire 1 4 stall $end
$var reg 1 a" past_valid $end
$var reg 1 b" prev_de_branch_taken $end
$var reg 32 c" prev_de_branch_target [31:0] $end
$var reg 32 d" prev_de_instruction [31:0] $end
$var reg 1 e" prev_de_valid $end
$var reg 1 f" prev_flush $end
$var reg 32 g" prev_pc [31:0] $end
$var reg 1 h" prev_rst_n $end
$var reg 1 i" prev_stall $end
$var integer 32 j" assert_fail [31:0] $end
$var integer 32 k" assert_pass [31:0] $end
$scope task report_assertions $end
$upscope $end
$upscope $end
$scope begin $ivl_for_loop1 $end
$var integer 32 l" i [31:0] $end
$upscope $end
$upscope $end
$enddefinitions $end
$comment Show the parameter values. $end
$dumpall
b100000000000000 T"
b10000000000000000 S"
b111000001110010011011110110011101110010011000010110110100101110011010000110010101111000 R"
b10011100010000 *
b111000001110010011011110110011101110010011000010110110100101110011010000110010101111000 )
$end
#0
$dumpvars
b0 l"
b0 k"
b0 j"
xi"
0h"
bx g"
xf"
xe"
bx d"
bx c"
xb"
0a"
b0 `"
b100 _"
b0 ^"
b0 ]"
b1111 \"
b0 ["
b0 Z"
b10011 Y"
b0 X"
b0 W"
b0 V"
b100000000000000 U"
b0 Q"
b0 P"
b10000010110111 O"
b0 N"
b0 M"
b0 L"
b1111 K"
b0 J"
bx I"
bx H"
bx G"
bx F"
xE"
bx D"
xC"
bx B"
bx A"
bx @"
x?"
x>"
bx ="
x<"
x;"
x:"
x9"
x8"
x7"
x6"
x5"
x4"
bx 3"
bx 2"
x1"
x0"
x/"
x."
bx -"
b0 ,"
b0 +"
b10011 *"
b0 )"
b0 ("
b0 '"
0&"
b10011 %"
b10 $"
b0 #"
b100000 ""
b0 !"
b0 ~
b0 }
b0 |
b0 {
b0 z
b0 y
b10011 x
b10011 w
b10 v
b0 u
b0 t
b0 s
b10011 r
b10011 q
b0 p
b0 o
b0 n
b0 m
b0 l
b0 k
b0 j
b0 i
0h
b0 g
0f
b0 e
b0 d
0c
b10 b
0a
0`
0_
b0 ^
0]
0\
b0 [
b0 Z
b1111 Y
0X
b0 W
b10011 V
b0 U
0T
b0 S
b0 R
b0 Q
1P
b0 O
1N
0M
0L
0K
0J
0I
0H
0G
0F
b10 E
0D
1C
0B
b0 A
b0 @
b0 ?
b0 >
b0 =
b0 <
b10000010110111 ;
b100 :
09
b0 8
b0 7
06
05
04
b0 3
b10000010110111 2
01
b0 0
b0 /
0.
0-
0,
0+
b0 (
b1111 '
0&
b0 %
b0 $
0#
b0 "
b10000010110111 !
$end
#5000
0b"
0e"
0f"
0i"
b0 c"
b10011 d"
b0 g"
0E"
04"
0."
0>"
08"
06"
00"
0C"
0:"
05"
0?"
b0 -"
b0 2"
b0 3"
b0 D"
b0 ="
0;"
0/"
09"
07"
01"
0<"
b0 B"
b0 A"
b0 @"
b100000 ""
1+
#10000
0+
#15000
b100000 ""
1+
#20000
0+
#25000
b100000 ""
1+
#30000
0+
#35000
b100000 ""
1+
#40000
0+
#45000
0P
b10000000000000 Q
b10000000000000 p
b10000000000000 V"
1I
b1010 O
b1010 o
b1010 u
b1010 #"
b1010 X"
1C
1N
b10000000000000 S
b10000000000000 n
b10000000000000 U
b10000000000000 W"
b1000 :
b1000 _"
b1000000010010011 2
b1000000010010011 !
b1000000010010011 ;
b1000000010010011 O"
1&"
b110111 r
b10 t
b10000000000000 A
b10000000000000 y
b110111 x
b110111 *"
b10 ,"
b1 )"
b1 N"
b100 d
1X
b10000010110111 V
b10000010110111 q
b10000010110111 w
b10000010110111 %"
b10000010110111 Y"
b100 "
b100 3
b100 M"
b100 j
b100 `"
1h"
1,
1+
#50000
0+
#55000
b10000000000000 R
b10000000000000 m
b10000000000000 ?
b10000000000000 !"
0P
b10000000000000 Q
b10000000000000 p
b10000000000000 V"
b1100 :
b1100 _"
b100010011 2
b100010011 !
b100010011 ;
b100010011 O"
0I
1C
1N
b0 O
b0 o
b0 u
b0 #"
b0 X"
b0 S
b0 n
b10 N"
b1 @
b1 z
b10011 r
b0 t
b0 A
b0 y
b10011 x
b10011 *"
b0 ,"
b1 ("
b100 U
b100 W"
19
b10000000000000 8
b10000000000000 i
b10000000000000 }
b1111 '
b1111 Y
b1111 K"
b1111 \"
b100000000000 P"
b1000 "
b1000 3
b1000 M"
b1000 j
b1000 `"
b1000000010010011 V
b1000000010010011 q
b1000000010010011 w
b1000000010010011 %"
b1000000010010011 Y"
b100 W
b100 Z"
1h
1f
b1 7
b1 |
b1 e
b1 ^"
b10000000000000 (
b10000000000000 0
b10000000000000 J"
b10000000000000 ["
b10000000000000 [
b10000000000000 ]"
b1 A"
b10 @"
1>"
1a"
1e"
b10000000000000 c"
b10000010110111 d"
b100 g"
b1 /
1+
#60000
0+
#65000
1P
b0 Q
b0 p
b0 V"
b0 R
b0 m
b0 ?
b0 !"
b10000 :
b10000 _"
b10101000000000000110010011 2
b10101000000000000110010011 !
b10101000000000000110010011 ;
b10101000000000000110010011 O"
b0 @
b0 z
b10 )"
b0 ("
b1000 U
b1000 W"
b11 N"
b1000 d
b100010011 V
b100010011 q
b100010011 w
b100010011 %"
b100010011 Y"
b1000 W
b1000 Z"
b1100 "
b1100 3
b1100 M"
b1100 j
b1100 `"
b100 c"
b1000000010010011 d"
b1000 g"
15"
b1 -"
b1 B"
b11 A"
b110 k"
b10 /
1+
#70000
0+
#75000
0P
b101010 Q
b101010 p
b101010 V"
b10100 :
b10100 _"
b11111111111100000000001000010011 2
b11111111111100000000001000010011 !
b11111111111100000000001000010011 ;
b11111111111100000000001000010011 O"
1C
1N
b101010 S
b101010 n
b100 N"
b1010 >
b1010 {
b1 s
b101010 A
b101010 y
b1 +"
b11 )"
b1010 '"
b110110 U
b110110 W"
b0 8
b0 i
b0 }
b1111 '
b1111 Y
b1111 K"
b1111 \"
b0 P"
b10000 "
b10000 3
b10000 M"
b10000 j
b10000 `"
b10101000000000000110010011 V
b10101000000000000110010011 q
b10101000000000000110010011 w
b10101000000000000110010011 %"
b10101000000000000110010011 Y"
b1100 W
b1100 Z"
b10 7
b10 |
b10 e
b10 ^"
b1100 d
b0 (
b0 0
b0 J"
b0 ["
b0 [
b0 ]"
b110 @"
b1000 c"
b100010011 d"
b1100 g"
b11 /
b1100 k"
1+
#80000
0+
#85000
0P
b11111111111111111111111111111111 Q
b11111111111111111111111111111111 p
b11111111111111111111111111111111 V"
1C
1N
b11111111111111111111111111111111 S
b11111111111111111111111111111111 n
b11000 :
b11000 _"
b10101000000000001010010011 2
b10101000000000001010010011 !
b10101000000000001010010011 ;
b10101000000000001010010011 O"
b101010 8
b101010 i
b101010 }
b1111 '
b1111 Y
b1111 K"
b1111 \"
b1010 P"
b11111 >
b11111 {
b1111111 s
b11111111111111111111111111111111 A
b11111111111111111111111111111111 y
b1111111 +"
b100 )"
b11111 '"
b1111 U
b1111 W"
b101 N"
b11 7
b11 |
b11 e
b11 ^"
b10000 d
b101010 (
b101010 0
b101010 J"
b101010 ["
b101010 [
b101010 ]"
b11111111111100000000001000010011 V
b11111111111100000000001000010011 q
b11111111111100000000001000010011 w
b11111111111100000000001000010011 %"
b11111111111100000000001000010011 Y"
b10000 W
b10000 Z"
b10100 "
b10100 3
b10100 M"
b10100 j
b10100 `"
b110110 c"
b10101000000000000110010011 d"
b10000 g"
b10000000001 B"
b1110 @"
b10010 k"
b100 /
1+
#90000
0+
#95000
0P
b101010 Q
b101010 p
b101010 V"
b11100 :
b11100 _"
b1100010011 2
b1100010011 !
b1100010011 ;
b1100010011 O"
1C
1N
b101010 S
b101010 n
b110 N"
b1010 >
b1010 {
b1 s
b101010 A
b101010 y
b1 +"
b101 )"
b1010 '"
b111110 U
b111110 W"
b11111111111111111111111111111111 8
b11111111111111111111111111111111 i
b11111111111111111111111111111111 }
b1111 '
b1111 Y
b1111 K"
b1111 \"
b111111111111111111111111111111 P"
b11000 "
b11000 3
b11000 M"
b11000 j
b11000 `"
b10101000000000001010010011 V
b10101000000000001010010011 q
b10101000000000001010010011 w
b10101000000000001010010011 %"
b10101000000000001010010011 Y"
b10100 W
b10100 Z"
b100 7
b100 |
b100 e
b100 ^"
b10100 d
b11111111111111111111111111111111 (
b11111111111111111111111111111111 0
b11111111111111111111111111111111 J"
b11111111111111111111111111111111 ["
b11111111111111111111111111111111 [
b11111111111111111111111111111111 ]"
b10000000000000000000010000000001 B"
b11110 @"
b1111 c"
b11111111111100000000001000010011 d"
b10100 g"
b101 /
b11000 k"
1+
#100000
0+
#105000
1P
b0 Q
b0 p
b0 V"
1C
1N
b0 S
b0 n
b100000 :
b100000 _"
b1110010011 2
b1110010011 !
b1110010011 ;
b1110010011 O"
b101010 8
b101010 i
b101010 }
b1111 '
b1111 Y
b1111 K"
b1111 \"
b1010 P"
b0 >
b0 {
b0 s
b0 A
b0 y
b0 +"
b110 )"
b0 '"
b11000 U
b11000 W"
b111 N"
b101 7
b101 |
b101 e
b101 ^"
b11000 d
b101010 (
b101010 0
b101010 J"
b101010 ["
b101010 [
b101010 ]"
b1100010011 V
b1100010011 q
b1100010011 w
b1100010011 %"
b1100010011 Y"
b11000 W
b11000 Z"
b11100 "
b11100 3
b11100 M"
b11100 j
b11100 `"
b111110 c"
b10101000000000001010010011 d"
b11000 g"
b111110 @"
b11110 k"
b110 /
1+
#110000
0+
#115000
b100100 :
b100100 _"
b10000010011 2
b10000010011 !
b10000010011 ;
b10000010011 O"
b1000 N"
b111 )"
b11100 U
b11100 W"
b0 8
b0 i
b0 }
b1111 '
b1111 Y
b1111 K"
b1111 \"
b0 P"
b100000 "
b100000 3
b100000 M"
b100000 j
b100000 `"
b1110010011 V
b1110010011 q
b1110010011 w
b1110010011 %"
b1110010011 Y"
b11100 W
b11100 Z"
b110 7
b110 |
b110 e
b110 ^"
b11100 d
b0 (
b0 0
b0 J"
b0 ["
b0 [
b0 ]"
b1111110 @"
b11000 c"
b1100010011 d"
b11100 g"
b111 /
b100100 k"
1+
#120000
0+
#125000
b101000 :
b101000 _"
b1111111100000000010010010011 2
b1111111100000000010010010011 !
b1111111100000000010010010011 ;
b1111111100000000010010010011 O"
b1000 )"
b100000 U
b100000 W"
b1001 N"
b111 7
b111 |
b111 e
b111 ^"
b100000 d
b10000010011 V
b10000010011 q
b10000010011 w
b10000010011 %"
b10000010011 Y"
b100000 W
b100000 Z"
b100100 "
b100100 3
b100100 M"
b100100 j
b100100 `"
b11100 c"
b1110010011 d"
b100000 g"
b11111110 @"
b101010 k"
b1000 /
1+
#130000
0+
#135000
0P
b11111111 Q
b11111111 p
b11111111 V"
b101100 :
b101100 _"
b110010010010101011110010010011 2
b110010010010101011110010010011 !
b110010010010101011110010010011 ;
b110010010010101011110010010011 O"
1C
1N
b11111111 S
b11111111 n
b1010 N"
b11111 >
b11111 {
b111 s
b11111111 A
b11111111 y
b111 +"
b1001 )"
b11111 '"
b100100011 U
b100100011 W"
b101000 "
b101000 3
b101000 M"
b101000 j
b101000 `"
b1111111100000000010010010011 V
b1111111100000000010010010011 q
b1111111100000000010010010011 w
b1111111100000000010010010011 %"
b1111111100000000010010010011 Y"
b100100 W
b100100 Z"
b1000 7
b1000 |
b1000 e
b1000 ^"
b100100 d
b111111110 @"
b100000 c"
b10000010011 d"
b100100 g"
b1001 /
b110000 k"
1+
#140000
0+
#145000
b11111111111111111111111111111111 =
b11111111111111111111111111111111 ~
0P
b1 Q
b1 p
b1 V"
b100 O
b100 o
b100 u
b100 #"
b100 X"
1C
1N
b1100100100 S
b1100100100 n
b110000 :
b110000 _"
b11011110100000111110110010010011 2
b11011110100000111110110010010011 !
b11011110100000111110110010010011 ;
b11011110100000111110110010010011 O"
b11111111 8
b11111111 i
b11111111 }
b1111 '
b1111 Y
b1111 K"
b1111 \"
b111111 P"
b10101 @
b10101 z
b100 >
b100 {
b11 t
b11001 s
b1100100100 A
b1100100100 y
b11 ,"
b11001 +"
b11001 )"
b10101 ("
b100 '"
b1101001100 U
b1101001100 W"
b1011 N"
b1001 7
b1001 |
b1001 e
b1001 ^"
b101000 d
b11111111 (
b11111111 0
b11111111 J"
b11111111 ["
b11111111 [
b11111111 ]"
b110010010010101011110010010011 V
b110010010010101011110010010011 q
b110010010010101011110010010011 w
b110010010010101011110010010011 %"
b110010010010101011110010010011 Y"
b101000 W
b101000 Z"
b101100 "
b101100 3
b101100 M"
b101100 j
b101100 `"
b100100011 c"
b1111111100000000010010010011 d"
b101000 g"
b1111111110 @"
b110110 k"
b1010 /
1+
#150000
0+
#155000
b0 =
b0 ~
0P
b11111111111111111111110111101000 Q
b11111111111111111111110111101000 p
b11111111111111111111110111101000 V"
b110100 :
b110100 _"
b11110010110110101110110010010011 2
b11110010110110101110110010010011 !
b11110010110110101110110010010011 ;
b11110010110110101110110010010011 O"
1C
1N
b1000 O
b1000 o
b1000 u
b1000 #"
b1000 X"
b11111111111111111111110111101000 S
b11111111111111111111110111101000 n
b1100 N"
b111 @
b111 z
b1000 >
b1000 {
b110 t
b1101111 s
b11111111111111111111110111101000 A
b11111111111111111111110111101000 y
b110 ,"
b1101111 +"
b111 ("
b1000 '"
b11111111111111111111111000010100 U
b11111111111111111111111000010100 W"
b1 8
b1 i
b1 }
b11111111111111111111111111111111 $
b11111111111111111111111111111111 Z
b11111111111111111111111111111111 L"
b1111 '
b1111 Y
b1111 K"
b1111 \"
b0 P"
b110000 "
b110000 3
b110000 M"
b110000 j
b110000 `"
b11011110100000111110110010010011 V
b11011110100000111110110010010011 q
b11011110100000111110110010010011 w
b11011110100000111110110010010011 %"
b11011110100000111110110010010011 Y"
b101100 W
b101100 Z"
b11001 7
b11001 |
b11001 e
b11001 ^"
b101100 d
b11111111111111111111111111111111 g
b1 (
b1 0
b1 J"
b1 ["
b1 [
b1 ]"
b10000000000000000000010000010001 B"
b1000000000000000000011 A"
b10000000000000001111111110 @"
b10001 -"
b1101001100 c"
b110010010010101011110010010011 d"
b101100 g"
b1011 /
b111100 k"
1+
#160000
0+
#165000
0P
b11111111111111111111111100101101 Q
b11111111111111111111111100101101 p
b11111111111111111111111100101101 V"
1C
1N
b1000 O
b1000 o
b1000 u
b1000 #"
b1000 X"
b11111111111111111111111100101101 S
b11111111111111111111111100101101 n
b111000 :
b111000 _"
b1000001111010001101010100010011 2
b1000001111010001101010100010011 !
b1000001111010001101010100010011 ;
b1000001111010001101010100010011 O"
b11111111111111111111110111101000 8
b11111111111111111111110111101000 i
b11111111111111111111110111101000 }
b0 $
b0 Z
b0 L"
b1111 '
b1111 Y
b1111 K"
b1111 \"
b111111111111111111111101111010 P"
b10101 @
b10101 z
b1101 >
b1101 {
b1111001 s
b11111111111111111111111100101101 A
b11111111111111111111111100101101 y
b1111001 +"
b10101 ("
b1101 '"
b11111111111111111111111101011101 U
b11111111111111111111111101011101 W"
b1101 N"
b110000 d
b0 g
b11111111111111111111110111101000 (
b11111111111111111111110111101000 0
b11111111111111111111110111101000 J"
b11111111111111111111110111101000 ["
b11111111111111111111110111101000 [
b11111111111111111111110111101000 ]"
b11110010110110101110110010010011 V
b11110010110110101110110010010011 q
b11110010110110101110110010010011 w
b11110010110110101110110010010011 %"
b11110010110110101110110010010011 Y"
b110000 W
b110000 Z"
b110100 "
b110100 3
b110100 M"
b110100 j
b110100 `"
b11111111111111111111111000010100 c"
b11011110100000111110110010010011 d"
b110000 g"
b100010001 -"
b10000000000000000000010100010001 B"
b1000000000000010000011 A"
b1000010 k"
b1100 /
1+
#170000
0+
#175000
1P
b0 Q
b0 p
b0 V"
b111100 :
b111100 _"
b11010100011010010100111010010011 2
b11010100011010010100111010010011 !
b11010100011010010100111010010011 ;
b11010100011010010100111010010011 O"
1C
1N
b111 O
b111 o
b111 u
b111 #"
b111 X"
b10000011110 S
b10000011110 n
b1110 N"
b10001 @
b10001 z
b11110 >
b11110 {
b101 t
b100000 s
b10000011110 A
b10000011110 y
b101 ,"
b100000 +"
b1010 )"
b10001 ("
b11110 '"
b10001010010 U
b10001010010 W"
b11111111111111111111111100101101 8
b11111111111111111111111100101101 i
b11111111111111111111111100101101 }
b1111 '
b1111 Y
b1111 K"
b1111 \"
b111111111111111111111111001011 P"
b111000 "
b111000 3
b111000 M"
b111000 j
b111000 `"
b1000001111010001101010100010011 V
b1000001111010001101010100010011 q
b1000001111010001101010100010011 w
b1000001111010001101010100010011 %"
b1000001111010001101010100010011 Y"
b110100 W
b110100 Z"
b110100 d
b11111111111111111111111100101101 (
b11111111111111111111111100101101 0
b11111111111111111111111100101101 J"
b11111111111111111111111100101101 ["
b11111111111111111111111100101101 [
b11111111111111111111111100101101 ]"
b10000000000000000010010100010001 B"
b11111111111111111111111101011101 c"
b11110010110110101110110010010011 d"
b110100 g"
b1101 /
b1001000 k"
1+
#180000
0+
#185000
0P
b11111111111111111111110101000110 Q
b11111111111111111111110101000110 p
b11111111111111111111110101000110 V"
1C
1N
b101 O
b101 o
b101 u
b101 #"
b101 X"
b11111111111111111111110101000110 S
b11111111111111111111110101000110 n
b1000000 :
b1000000 _"
b1101000011100101110110011 2
b1101000011100101110110011 !
b1101000011100101110110011 ;
b1101000011100101110110011 O"
b0 8
b0 i
b0 }
b1111 '
b1111 Y
b1111 K"
b1111 \"
b0 P"
b10010 @
b10010 z
b110 >
b110 {
b100 t
b1101010 s
b11111111111111111111110101000110 A
b11111111111111111111110101000110 y
b100 ,"
b1101010 +"
b11101 )"
b10010 ("
b110 '"
b11111111111111111111110101111110 U
b11111111111111111111110101111110 W"
b1111 N"
b1010 7
b1010 |
b1010 e
b1010 ^"
b111000 d
b0 (
b0 0
b0 J"
b0 ["
b0 [
b0 ]"
b11010100011010010100111010010011 V
b11010100011010010100111010010011 q
b11010100011010010100111010010011 w
b11010100011010010100111010010011 %"
b11010100011010010100111010010011 Y"
b111000 W
b111000 Z"
b111100 "
b111100 3
b111100 M"
b111100 j
b111100 `"
b10001010010 c"
b1000001111010001101010100010011 d"
b111000 g"
b110010001 -"
b11000000000000000010010100010001 B"
b1000100000000010000011 A"
b10000000000000011111111110 @"
b1001110 k"
b1110 /
1+
#190000
0+
#195000
b101010 R
b101010 m
b101010 ?
b101010 !"
0P
b101010 Q
b101010 p
b101010 V"
b1000100 :
b1000100 _"
b11000000000000001100000100000011 2
b11000000000000001100000100000011 !
b11000000000000001100000100000011 ;
b11000000000000001100000100000011 O"
1C
0N
b101 O
b101 o
b101 u
b101 #"
b101 X"
b0 S
b0 n
b10000 N"
b11 @
b11 z
b11010 >
b11010 {
b110011 r
b0 s
b0 A
b0 y
b110011 x
b110011 *"
b0 +"
b10111 )"
b11 ("
b11010 '"
b111100 U
b111100 W"
b11111111111111111111110101000110 8
b11111111111111111111110101000110 i
b11111111111111111111110101000110 }
b1111 '
b1111 Y
b1111 K"
b1111 \"
b111111111111111111111101010001 P"
b1000000 "
b1000000 3
b1000000 M"
b1000000 j
b1000000 `"
b1101000011100101110110011 V
b1101000011100101110110011 q
b1101000011100101110110011 w
b1101000011100101110110011 %"
b1101000011100101110110011 Y"
b111100 W
b111100 Z"
b11101 7
b11101 |
b11101 e
b11101 ^"
b111100 d
b11111111111111111111110101000110 (
b11111111111111111111110101000110 0
b11111111111111111111110101000110 J"
b11111111111111111111110101000110 ["
b11111111111111111111110101000110 [
b11111111111111111111110101000110 ]"
b11000000000000000010010101010001 B"
b1001100000000010000011 A"
b100010000000000000011111111110 @"
b110110001 -"
b11111111111111111111110101111110 c"
b11010100011010010100111010010011 d"
b111100 g"
b1111 /
b1010100 k"
1+
#200000
0+
