sim/rv32i_axi_tb.vcd
$date
	Fri Feb 20 12:06:00 2026
$end
$version
	Icarus Verilog
$end
$timescale
	1ps
$end
$scope module rv32i_axi_tb $end
$var wire 3 ! m_axi_arprot [2:0] $end
$var wire 3 " m_axi_awprot [2:0] $end
$var wire 1 # m_axi_wvalid $end
$var wire 4 $ m_axi_wstrb [3:0] $end
$var wire 1 % m_axi_wready $end
$var wire 32 & m_axi_wdata [31:0] $end
$var wire 1 ' m_axi_rvalid $end
$var wire 2 ( m_axi_rresp [1:0] $end
$var wire 1 ) m_axi_rready $end
$var wire 32 * m_axi_rdata [31:0] $end
$var wire 1 + m_axi_bvalid $end
$var wire 2 , m_axi_bresp [1:0] $end
$var wire 1 - m_axi_bready $end
$var wire 1 . m_axi_awvalid $end
$var wire 1 / m_axi_awready $end
$var wire 32 0 m_axi_awaddr [31:0] $end
$var wire 1 1 m_axi_arvalid $end
$var wire 1 2 m_axi_arready $end
$var wire 32 3 m_axi_araddr [31:0] $end
$var wire 32 4 imem_word_addr [31:0] $end
$var wire 32 5 imem_rdata [31:0] $end
$var wire 32 6 imem_addr [31:0] $end
$var parameter 32 7 IMEM_WORDS $end
$var parameter 88 8 INIT_FILE $end
$var parameter 32 9 MAX_CYCLES $end
$var reg 1 : clk $end
$var reg 1 ; rst_n $end
$var reg 1 < test_done $end
$var reg 1 = test_passed $end
$var integer 32 > cycle_count [31:0] $end
$var integer 32 ? imem_i [31:0] $end
$scope module u_axi_mem $end
$var wire 1 : clk $end
$var wire 1 ; rst_n $end
$var wire 3 @ s_axi_arprot [2:0] $end
$var wire 3 A s_axi_awprot [2:0] $end
$var wire 1 # s_axi_wvalid $end
$var wire 4 B s_axi_wstrb [3:0] $end
$var wire 32 C s_axi_wdata [31:0] $end
$var wire 1 ) s_axi_rready $end
$var wire 1 - s_axi_bready $end
$var wire 1 . s_axi_awvalid $end
$var wire 32 D s_axi_awaddr [31:0] $end
$var wire 1 1 s_axi_arvalid $end
$var wire 32 E s_axi_araddr [31:0] $end
$var parameter 88 F INIT_FILE $end
$var parameter 32 G MEM_SIZE_BYTES $end
$var parameter 32 H NUM_WORDS $end
$var parameter 32 I RESP_LATENCY $end
$var reg 1 J aw_received $end
$var reg 32 K rd_addr_r [31:0] $end
$var reg 8 L rd_lat_cnt [7:0] $end
$var reg 1 M rd_pending $end
$var reg 1 2 s_axi_arready $end
$var reg 1 / s_axi_awready $end
$var reg 2 N s_axi_bresp [1:0] $end
$var reg 1 + s_axi_bvalid $end
$var reg 32 O s_axi_rdata [31:0] $end
$var reg 2 P s_axi_rresp [1:0] $end
$var reg 1 ' s_axi_rvalid $end
$var reg 1 % s_axi_wready $end
$var reg 1 Q w_received $end
$var reg 32 R wr_addr_r [31:0] $end
$var reg 32 S wr_data_r [31:0] $end
$var reg 8 T wr_lat_cnt [7:0] $end
$var reg 1 U wr_pending $end
$var reg 4 V wr_strb_r [3:0] $end
$var integer 32 W init_i [31:0] $end
$upscope $end
$scope module u_dut $end
$var wire 1 : clk $end
$var wire 32 X imem_rdata [31:0] $end
$var wire 3 Y m_axi_arprot [2:0] $end
$var wire 1 2 m_axi_arready $end
$var wire 3 Z m_axi_awprot [2:0] $end
$var wire 1 / m_axi_awready $end
$var wire 2 [ m_axi_bresp [1:0] $end
$var wire 1 + m_axi_bvalid $end
$var wire 32 \ m_axi_rdata [31:0] $end
$var wire 2 ] m_axi_rresp [1:0] $end
$var wire 1 ' m_axi_rvalid $end
$var wire 1 % m_axi_wready $end
$var wire 1 ; rst_n $end
$var wire 32 ^ imem_addr [31:0] $end
$var wire 1 _ core_dmem_wr_en $end
$var wire 32 ` core_dmem_wdata [31:0] $end
$var wire 1 a core_dmem_rd_en $end
$var wire 4 b core_dmem_byte_en [3:0] $end
$var wire 32 c core_dmem_addr [31:0] $end
$var wire 1 d axi_stall $end
$var parameter 3 e S_IDLE $end
$var parameter 3 f S_RD_ADDR $end
$var parameter 3 g S_RD_DATA $end
$var parameter 3 h S_WR_ADDR $end
$var parameter 3 i S_WR_RESP $end
$var reg 1 j aw_done_r $end
$var reg 32 k core_dmem_rdata [31:0] $end
$var reg 32 l m_axi_araddr [31:0] $end
$var reg 1 1 m_axi_arvalid $end
$var reg 32 m m_axi_awaddr [31:0] $end
$var reg 1 . m_axi_awvalid $end
$var reg 1 - m_axi_bready $end
$var reg 1 ) m_axi_rready $end
$var reg 32 n m_axi_wdata [31:0] $end
$var reg 4 o m_axi_wstrb [3:0] $end
$var reg 1 # m_axi_wvalid $end
$var reg 32 p rdata_r [31:0] $end
$var reg 3 q state_next [2:0] $end
$var reg 3 r state_r [2:0] $end
$var reg 1 s w_done_r $end
$scope module u_core $end
$var wire 1 : clk $end
$var wire 32 t dmem_addr [31:0] $end
$var wire 1 a dmem_rd_en $end
$var wire 32 u dmem_rdata [31:0] $end
$var wire 1 _ dmem_wr_en $end
$var wire 1 v flush $end
$var wire 32 w if_instruction [31:0] $end
$var wire 32 x imem_addr [31:0] $end
$var wire 32 y imem_rdata [31:0] $end
$var wire 1 ; rst_n $end
$var wire 1 z stall $end
$var wire 1 d stall_in $end
$var wire 1 { stall_internal $end
$var wire 5 | wb_rd_addr [4:0] $end
$var wire 32 } wb_rd_data [31:0] $end
$var wire 1 ~ wb_reg_write $end
$var wire 32 !" pc_next [31:0] $end
$var wire 32 "" de_rs2_data [31:0] $end
$var wire 5 #" de_rs2_addr [4:0] $end
$var wire 32 $" de_rs1_data [31:0] $end
$var wire 5 %" de_rs1_addr [4:0] $end
$var wire 32 &" de_immediate [31:0] $end
$var wire 1 '" de_illegal_instr $end
$var wire 1 (" de_ctrl_reg_write $end
$var wire 1 )" de_ctrl_mem_write $end
$var wire 2 *" de_ctrl_mem_width [1:0] $end
$var wire 1 +" de_ctrl_mem_unsigned $end
$var wire 1 ," de_ctrl_mem_to_reg $end
$var wire 1 -" de_ctrl_mem_read $end
$var wire 1 ." de_ctrl_is_lui $end
$var wire 1 /" de_ctrl_is_jalr $end
$var wire 1 0" de_ctrl_is_jal $end
$var wire 1 1" de_ctrl_is_branch $end
$var wire 1 2" de_ctrl_is_auipc $end
$var wire 1 3" de_ctrl_alu_src $end
$var wire 4 4" de_ctrl_alu_op [3:0] $end
$var wire 1 5" de_alu_zero $end
$var wire 32 6" de_alu_result [31:0] $end
$var reg 32 7" de_alu_a [31:0] $end
$var reg 32 8" de_alu_b [31:0] $end
$var reg 1 9" de_branch_taken $end
$var reg 32 :" de_branch_target [31:0] $end
$var reg 32 ;" de_instruction_r [31:0] $end
$var reg 32 <" de_pc_r [31:0] $end
$var reg 1 =" de_valid_r $end
$var reg 4 >" dmem_byte_en [3:0] $end
$var reg 32 ?" dmem_wdata [31:0] $end
$var reg 32 @" mw_alu_result_r [31:0] $end
$var reg 1 A" mw_is_jal_r $end
$var reg 1 B" mw_is_jalr_r $end
$var reg 32 C" mw_mem_rdata_aligned [31:0] $end
$var reg 1 D" mw_mem_read_r $end
$var reg 1 E" mw_mem_to_reg_r $end
$var reg 1 F" mw_mem_unsigned_r $end
$var reg 2 G" mw_mem_width_r [1:0] $end
$var reg 1 H" mw_mem_write_r $end
$var reg 32 I" mw_pc_plus4_r [31:0] $end
$var reg 5 J" mw_rd_addr_r [4:0] $end
$var reg 1 K" mw_reg_write_r $end
$var reg 32 L" mw_rs2_data_r [31:0] $end
$var reg 1 M" mw_valid_r $end
$var reg 32 N" mw_writeback_data [31:0] $end
$var reg 32 O" pc_r [31:0] $end
$var reg 8 P" rd_byte [7:0] $end
$var reg 16 Q" rd_half [15:0] $end
$scope module u_alu $end
$var wire 32 R" a [31:0] $end
$var wire 32 S" b [31:0] $end
$var wire 1 5" zero $end
$var wire 4 T" op [3:0] $end
$var reg 32 U" result [31:0] $end
$upscope $end
$scope module u_control $end
$var wire 32 V" instruction [31:0] $end
$var wire 7 W" opcode [6:0] $end
$var wire 7 X" funct7 [6:0] $end
$var wire 3 Y" funct3 [2:0] $end
$var reg 4 Z" ctrl_alu_op [3:0] $end
$var reg 1 3" ctrl_alu_src $end
$var reg 1 2" ctrl_is_auipc $end
$var reg 1 1" ctrl_is_branch $end
$var reg 1 0" ctrl_is_jal $end
$var reg 1 /" ctrl_is_jalr $end
$var reg 1 ." ctrl_is_lui $end
$var reg 1 -" ctrl_mem_read $end
$var reg 1 ," ctrl_mem_to_reg $end
$var reg 1 +" ctrl_mem_unsigned $end
$var reg 2 [" ctrl_mem_width [1:0] $end
$var reg 1 )" ctrl_mem_write $end
$var reg 1 (" ctrl_reg_write $end
$var reg 1 '" illegal_instr $end
$upscope $end
$scope module u_imm_gen $end
$var wire 32 \" instruction [31:0] $end
$var wire 7 ]" opcode [6:0] $end
$var reg 32 ^" immediate [31:0] $end
$upscope $end
$scope module u_regfile $end
$var wire 1 : clk $end
$var wire 5 _" rs1_addr [4:0] $end
$var wire 5 `" rs2_addr [4:0] $end
$var wire 1 ; rst_n $end
$var wire 5 a" wr_addr [4:0] $end
$var wire 32 b" wr_data [31:0] $end
$var wire 1 ~ wr_en $end
$var wire 32 c" rs2_data [31:0] $end
$var wire 32 d" rs1_data [31:0] $end
$var integer 32 e" i [31:0] $end
$upscope $end
$upscope $end
$upscope $end
$scope begin $ivl_for_loop0 $end
$var integer 32 f" i [31:0] $end
$upscope $end
$upscope $end
$enddefinitions $end
$comment Show the parameter values. $end
$dumpall
b100 i
b11 h
b10 g
b1 f
b0 e
b1 I
b100000000000000 H
b10000000000000000 G
b111000001110010011011110110011101110010011000010110110100101110011010000110010101111000 F
b1100001101010000 9
b111000001110010011011110110011101110010011000010110110100101110011010000110010101111000 8
b100000000000000 7
$end
#0
$dumpvars
b0 f"
b100000 e"
b0 d"
b0 c"
b0 b"
b0 a"
b0 `"
b0 _"
b0 ^"
b10011 ]"
b10011 \"
b10 ["
b0 Z"
b0 Y"
b0 X"
b10011 W"
b10011 V"
b0 U"
b0 T"
b0 S"
b0 R"
b0 Q"
b0 P"
b0 O"
b0 N"
0M"
b0 L"
0K"
b0 J"
b0 I"
0H"
b10 G"
0F"
0E"
0D"
b0 C"
0B"
0A"
b0 @"
b0 ?"
b1111 >"
0="
b0 <"
b10011 ;"
b0 :"
09"
b0 8"
b0 7"
b0 6"
15"
b0 4"
13"
02"
01"
00"
0/"
0."
0-"
0,"
0+"
b10 *"
0)"
1("
0'"
b0 &"
b0 %"
b0 $"
b0 #"
b0 ""
b100 !"
0~
b0 }
b0 |
0{
0z
b11111111000000000000111110010011 y
b0 x
b11111111000000000000111110010011 w
0v
b0 u
b0 t
0s
b0 r
b0 q
b0 p
b0 o
b0 n
b0 m
b0 l
b0 k
0j
0d
b0 c
b1111 b
0a
b0 `
0_
b0 ^
b0 ]
b0 \
b0 [
b0 Z
b0 Y
b11111111000000000000111110010011 X
b100000000000000 W
b0 V
0U
b0 T
b0 S
b0 R
0Q
b0 P
b0 O
b0 N
0M
b0 L
b0 K
0J
b0 E
b0 D
b0 C
b0 B
b0 A
b0 @
b100000000000000 ?
b0 >
0=
0<
0;
0:
b0 6
b11111111000000000000111110010011 5
b0 4
b0 3
02
01
b0 0
0/
0.
0-
b0 ,
0+
b0 *
0)
b0 (
0'
b0 &
0%
b0 $
0#
b0 "
b0 !
$end
#5000
b100000 e"
1:
#10000
0:
#15000
b100000 e"
1:
#20000
0:
#25000
b100000 e"
1:
#30000
0:
#35000
b100000 e"
1:
#40000
0:
#45000
05"
b11111111111111111111111111110000 6"
b11111111111111111111111111110000 U"
1("
13"
b11111111111111111111111111110000 8"
b11111111111111111111111111110000 S"
b11111111111111111111111111110000 :"
b1000 !"
b10111100110111 w
b10111100110111 5
b10111100110111 X
b10111100110111 y
b10000 #"
b10000 `"
b1111111 X"
b11111111111111111111111111110000 &"
b11111111111111111111111111110000 ^"
b1 4
b100 I"
1="
b11111111000000000000111110010011 ;"
b11111111000000000000111110010011 V"
b11111111000000000000111110010011 \"
b100 6
b100 ^
b100 x
b100 O"
1;
1:
#50000
0:
#55000
05"
b10000000000000 6"
b10000000000000 U"
b1100 !"
b1111010101100000000000010010011 w
b1111010101100000000000010010011 5
b1111010101100000000000010010011 X
b1111010101100000000000010010011 y
1."
b1010 4"
b1010 T"
b1010 Z"
1("
13"
b10000000000000 8"
b10000000000000 S"
b10 4
b0 #"
b0 `"
b110111 W"
b10 Y"
b0 X"
b10000000000000 &"
b10000000000000 ^"
b110111 ]"
b10000000000100 :"
1~
b11111111111111111111111111110000 }
b11111111111111111111111111110000 N"
b11111111111111111111111111110000 b"
b1111 b
b1111 >"
b1000 6
b1000 ^
b1000 x
b1000 O"
b10111100110111 ;"
b10111100110111 V"
b10111100110111 \"
b100 <"
1M"
1K"
b11111 |
b11111 a"
b11111 J"
b11111111111111111111111111110000 c
b11111111111111111111111111110000 t
b11111111111111111111111111110000 @"
b1 >
1:
#60000
0:
#65000
05"
b11110101011 6"
b11110101011 U"
0."
1("
13"
b0 4"
b0 T"
b0 Z"
b11110101011 8"
b11110101011 S"
b10000 !"
b111110010000000100011 w
b111110010000000100011 5
b111110010000000100011 X
b111110010000000100011 y
b10000000000000 }
b10000000000000 N"
b10000000000000 b"
b1111 b
b1111 >"
b1011 #"
b1011 `"
b10011 W"
b0 Y"
b111101 X"
b11110101011 &"
b11110101011 ^"
b10011 ]"
b11110110011 :"
b11 4
b11110 |
b11110 a"
b11110 J"
b1000 I"
b10000000000000 c
b10000000000000 t
b10000000000000 @"
b1111010101100000000000010010011 ;"
b1111010101100000000000010010011 V"
b1111010101100000000000010010011 \"
b1000 <"
b1100 6
b1100 ^
b1100 x
b1100 O"
b10 >
1:
#70000
0:
#75000
b11110101011 ""
b11110101011 c"
b10000000000000 7"
b10000000000000 R"
05"
b10000000000000 6"
b10000000000000 U"
b10100 !"
b11110010000100000011 w
b11110010000100000011 5
b11110010000100000011 X
b11110010000100000011 y
b10000000000000 $"
b10000000000000 d"
1)"
0("
13"
b0 8"
b0 S"
b100 4
b11110 %"
b11110 _"
b1 #"
b1 `"
b100011 W"
b10 Y"
b0 X"
b0 &"
b0 ^"
b100011 ]"
b1100 :"
b11110101011 }
b11110101011 N"
b11110101011 b"
b1111 b
b1111 >"
b10000 6
b10000 ^
b10000 x
b10000 O"
b111110010000000100011 ;"
b111110010000000100011 V"
b111110010000000100011 \"
b1100 <"
b1 |
b1 a"
b1 J"
b1100 I"
b11110101011 c
b11110101011 t
b11110101011 @"
b11 >
1:
#80000
0:
#85000
1z
b0 ""
b0 c"
1,"
1-"
1("
0)"
13"
b10100 !"
b1110001000001001000001100011 w
b1110001000001001000001100011 5
b1110001000001001000001100011 X
b1110001000001001000001100011 y
1d
b11 q
0~
b10000000000000 }
b10000000000000 N"
b10000000000000 b"
b11110101011 `
b11110101011 ?"
b1111 b
b1111 >"
b0 #"
b0 `"
b11 W"
b11 ]"
b10000 :"
b101 4
1_
1H"
0K"
b0 |
b0 a"
b0 J"
b10000 I"
b11110101011 L"
b10000000000000 c
b10000000000000 t
b10000000000000 @"
b11110010000100000011 ;"
b11110010000100000011 V"
b11110010000100000011 \"
b10000 <"
b10100 6
b10100 ^
b10100 x
b10100 O"
b100 >
1:
#90000
0:
#95000
b11 r
1.
b10000000000000 0
b10000000000000 D
b10000000000000 m
1#
b1111 $
b1111 B
b1111 o
b11110101011 &
b11110101011 C
b11110101011 n
b101 >
1:
#100000
0:
#105000
b100 q
1Q
b1111 V
b11110101011 S
1%
1J
b10000000000000 R
1/
b110 >
1:
#110000
0:
#115000
b100 r
1s
1j
0.
0#
1-
0Q
0J
b1 T
1U
0%
0/
b111 >
1:
#120000
0:
#125000
b0 T
0s
0j
b1000 >
1:
#130000
0:
#135000
b11000 !"
0z
0d
b0 q
0U
1+
b1001 >
1:
#140000
0:
#145000
1{
b11110101011 7"
b11110101011 R"
b11110101011 $"
b11110101011 d"
19"
05"
b11110101011 6"
b11110101011 U"
1z
b1 4"
b1 T"
b1 Z"
11"
0,"
0-"
0("
03"
b0 8"
b0 S"
b11000 !"
b11111111111100000000000010010011 w
b11111111111100000000000010010011 5
b11111111111100000000000010010011 X
b11111111111100000000000010010011 y
1d
b1 q
1~
b0 }
b0 N"
b0 b"
b0 `
b0 ?"
b1111 b
b1111 >"
b1 %"
b1 _"
b10 #"
b10 `"
b1100011 W"
b1 Y"
b111 X"
b11100000 &"
b11100000 ^"
b1100011 ]"
b11110100 :"
b110 4
0+
0-
b0 r
1E"
0_
0H"
1a
1D"
1K"
b10 |
b10 a"
b10 J"
b10100 I"
b0 L"
b1110001000001001000001100011 ;"
b1110001000001001000001100011 V"
b1110001000001001000001100011 \"
b10100 <"
b11000 6
b11000 ^
b11000 x
b11000 O"
b1010 >
1:
#150000
0:
#155000
b1 r
11
b10000000000000 3
b10000000000000 E
b10000000000000 l
b1011 >
1:
#160000
0:
#165000
b10 q
b1 L
1M
b10000000000000 K
12
b1100 >
1:
#170000
0:
#175000
b10 r
01
1)
b0 L
02
b1101 >
1:
#180000
0:
#185000
15"
b0 6"
b0 U"
b11110101011 8"
b11110101011 S"
09"
b11110101011 ""
b11110101011 c"
b11110101011 }
b11110101011 N"
b11110101011 b"
0v
b11110101011 C"
0d
b0 q
b11110101011 k
b11110101011 u
0M
1'
b11110101011 *
b11110101011 O
b11110101011 \
b1110 >
1:
#190000
0:
#195000
b11100 !"
0z
0{
0~
0a
0D"
0K"
0M"
b0 r
0)
b11110101011 p
0'
b1111 >
1:
#200000
0:
#205000
b11111111111111111111111111110000 ""
b11111111111111111111111111110000 c"
b11111111111111111111111111111111 8"
b11111111111111111111111111111111 S"
b0 7"
b0 R"
05"
b11111111111111111111111111111111 6"
b11111111111111111111111111111111 U"
0v
b0 $"
b0 d"
13"
1("
01"
b0 4"
b0 T"
b0 Z"
b100000 !"
b111110010001000100011 w
b111110010001000100011 5
b111110010001000100011 X
b111110010001000100011 y
b0 }
b0 N"
b0 b"
b11110101011 C"
b11110101011 `
b11110101011 ?"
b1111 b
b1111 >"
b0 %"
b0 _"
b11111 #"
b11111 `"
b10011 W"
b0 Y"
b1111111 X"
b11111111111111111111111111111111 &"
b11111111111111111111111111111111 ^"
b10011 ]"
09"
b10111 :"
b111 4
1M"
0E"
b0 |
b0 a"
b0 J"
b11000 I"
b11110101011 L"
b0 c
b0 t
b0 @"
b11111111111100000000000010010011 ;"
b11111111111100000000000010010011 V"
b11111111111100000000000010010011 \"
b11000 <"
b11100 6
b11100 ^
b11100 x
b11100 O"
b10000 >
1:
#210000
0:
#215000
b11111111111111111111111111111111 ""
b11111111111111111111111111111111 c"
b10000000000000 7"
b10000000000000 R"
05"
b10000000000100 6"
b10000000000100 U"
b100100 !"
b10011110010000100000011 w
b10011110010000100000011 5
b10011110010000100000011 X
b10011110010000100000011 y
b10000000000000 $"
b10000000000000 d"
1)"
0("
13"
b100 8"
b100 S"
b1000 4
b11110 %"
b11110 _"
b1 #"
b1 `"
b100011 W"
b10 Y"
b0 X"
b100 &"
b100 ^"
b100011 ]"
b100000 :"
1~
b11111111111111111111111111111111 }
b11111111111111111111111111111111 N"
b11111111111111111111111111111111 b"
b11110101011 C"
b11111111111111111111111111110000 `
b11111111111111111111111111110000 ?"
b1111 b
b1111 >"
b100000 6
b100000 ^
b100000 x
b100000 O"
b111110010001000100011 ;"
b111110010001000100011 V"
b111110010001000100011 \"
b11100 <"
1K"
b1 |
b1 a"
b1 J"
b11100 I"
b11111111111111111111111111110000 L"
b11111111111111111111111111111111 c
b11111111111111111111111111111111 t
b11111111111111111111111111111111 @"
b10001 >
1:
#220000
0:
#225000
b0 ""
b0 c"
1z
1,"
1-"
1("
0)"
13"
b100100 !"
b1100001000001001100001100011 w
b1100001000001001100001100011 5
b1100001000001001100001100011 X
b1100001000001001100001100011 y
1d
b11 q
0~
b10000000000100 }
b10000000000100 N"
b10000000000100 b"
b11110101011 C"
b11111111111111111111111111111111 `
b11111111111111111111111111111111 ?"
b1111 b
b1111 >"
b100 #"
b100 `"
b11 W"
b100 &"
b100 ^"
b11 ]"
b100100 :"
b1001 4
1_
1H"
0K"
b100 |
b100 a"
b100 J"
b100000 I"
b11111111111111111111111111111111 L"
b10000000000100 c
b10000000000100 t
b10000000000100 @"
b10011110010000100000011 ;"
b10011110010000100000011 V"
b10011110010000100000011 \"
b100000 <"
b100100 6
b100100 ^
b100100 x
b100100 O"
b10010 >
1:
#230000
0:
#235000
b11 r
1.
b10000000000100 0
b10000000000100 D
b10000000000100 m
1#
b11111111111111111111111111111111 &
b11111111111111111111111111111111 C
b11111111111111111111111111111111 n
b10011 >
1:
#240000
0:
#245000
b100 q
1Q
b11111111111111111111111111111111 S
1%
1J
b10000000000100 R
1/
b10100 >
1:
#250000
0:
#255000
b100 r
1s
1j
0.
0#
1-
0Q
0J
b1 T
1U
0%
0/
b10101 >
1:
#260000
0:
#265000
b0 T
0s
0j
b10110 >
1:
#270000
0:
#275000
b101000 !"
0z
0d
b0 q
0U
1+
b10111 >
1:
#280000
0:
#285000
1{
b11111111111111111111111111111111 7"
b11111111111111111111111111111111 R"
b11111111111111111111111111111111 $"
b11111111111111111111111111111111 d"
b11110101011 ""
b11110101011 c"
19"
05"
b11111111111111111111100001010100 6"
b11111111111111111111100001010100 U"
1z
b1 4"
b1 T"
b1 Z"
11"
0,"
0-"
0("
03"
b11110101011 8"
b11110101011 S"
b101000 !"
b10101011110011010001000010110111 w
b10101011110011010001000010110111 5
b10101011110011010001000010110111 X
b10101011110011010001000010110111 y
1d
b1 q
1~
b11110101011 }
b11110101011 N"
b11110101011 b"
b0 `
b0 ?"
b1111 b
b1111 >"
b1 %"
b1 _"
b10 #"
b10 `"
b1100011 W"
b1 Y"
b110 X"
b11010000 &"
b11010000 ^"
b1100011 ]"
b11110100 :"
b1010 4
0+
0-
b0 r
1E"
0_
0H"
1a
1D"
1K"
b10 |
b10 a"
b10 J"
b100100 I"
b0 L"
b1100001000001001100001100011 ;"
b1100001000001001100001100011 V"
b1100001000001001100001100011 \"
b100100 <"
b101000 6
b101000 ^
b101000 x
b101000 O"
b11000 >
1:
#290000
0:
#295000
b1 r
11
b10000000000100 3
b10000000000100 E
b10000000000100 l
b11001 >
1:
#300000
0:
#305000
b10 q
b1 L
1M
b10000000000100 K
12
b11010 >
1:
#310000
0:
#315000
b10 r
01
1)
b0 L
02
b11011 >
1:
#320000
0:
#325000
15"
b0 6"
b0 U"
b11111111111111111111111111111111 8"
b11111111111111111111111111111111 S"
09"
b11111111111111111111111111111111 ""
b11111111111111111111111111111111 c"
b11111111111111111111111111111111 }
b11111111111111111111111111111111 N"
b11111111111111111111111111111111 b"
0v
b11111111111111111111111111111111 C"
0d
b0 q
b11111111111111111111111111111111 k
b11111111111111111111111111111111 u
0M
1'
b11111111111111111111111111111111 *
b11111111111111111111111111111111 O
b11111111111111111111111111111111 \
b11100 >
1:
#330000
0:
#335000
b101100 !"
0z
0{
0~
0a
0D"
0K"
0M"
b0 r
0)
b11111111111111111111111111111111 p
0'
b11101 >
1:
#340000
0:
#345000
b0 7"
b0 R"
b0 $"
b0 d"
b0 ""
b0 c"
b10101011110011010001000000000000 8"
b10101011110011010001000000000000 S"
05"
b10101011110011010001000000000000 6"
b10101011110011010001000000000000 U"
1."
13"
1("
01"
b1010 4"
b1010 T"
b1010 Z"
b110000 !"
b100011010000001000000010010011 w
b100011010000001000000010010011 5
b100011010000001000000010010011 X
b100011010000001000000010010011 y
b0 }
b0 N"
b0 b"
b11111111111111111111111111111111 C"
b11111111111111111111111111111111 `
b11111111111111111111111111111111 ?"
b1111 b
b1111 >"
b11010 %"
b11010 _"
b11100 #"
b11100 `"
b110111 W"
b1010101 X"
b10101011110011010001000000000000 &"
b10101011110011010001000000000000 ^"
b110111 ]"
b10101011110011010001000000101000 :"
b1011 4
1M"
0E"
b10000 |
b10000 a"
b10000 J"
b101000 I"
b11111111111111111111111111111111 L"
b0 c
b0 t
b0 @"
b10101011110011010001000010110111 ;"
b10101011110011010001000010110111 V"
b10101011110011010001000010110111 \"
b101000 <"
b101100 6
b101100 ^
b101100 x
b101100 O"
b11110 >
1:
#350000
0:
#355000
b10101011110011010001000000000000 7"
b10101011110011010001000000000000 R"
b10101011110011010001000000000000 $"
b10101011110011010001000000000000 d"
05"
b10101011110011010001001000110100 6"
b10101011110011010001001000110100 U"
b110100 !"
b111110010010000100011 w
b111110010010000100011 5
b111110010010000100011 X
b111110010010000100011 y
0."
1("
13"
b0 4"
b0 T"
b0 Z"
b1000110100 8"
b1000110100 S"
b1100 4
b1 %"
b1 _"
b10100 #"
b10100 `"
b10011 W"
b0 Y"
b10001 X"
b1000110100 &"
b1000110100 ^"
b10011 ]"
b1001100000 :"
1~
b10101011110011010001000000000000 }
b10101011110011010001000000000000 N"
b10101011110011010001000000000000 b"
b11111111111111111111111111111111 C"
b0 `
b0 ?"
b1111 b
b1111 >"
b110000 6
b110000 ^
b110000 x
b110000 O"
b100011010000001000000010010011 ;"
b100011010000001000000010010011 V"
b100011010000001000000010010011 \"
b101100 <"
1K"
b1 |
b1 a"
b1 J"
b101100 I"
b0 L"
b10101011110011010001000000000000 c
b10101011110011010001000000000000 t
b10101011110011010001000000000000 @"
b11111 >
1:
#360000
0:
#365000
b10000000000000 7"
b10000000000000 R"
b10000000000000 $"
b10000000000000 d"
b10101011110011010001001000110100 ""
b10101011110011010001001000110100 c"
05"
b10000000001000 6"
b10000000001000 U"
1)"
0("
13"
b1000 8"
b1000 S"
b111000 !"
b100011110000000100000011 w
b100011110000000100000011 5
b100011110000000100000011 X
b100011110000000100000011 y
b10101011110011010001001000110100 }
b10101011110011010001001000110100 N"
b10101011110011010001001000110100 b"
b11111111111111111111111111111111 C"
b1111 b
b1111 >"
b11110 %"
b11110 _"
b1 #"
b1 `"
b100011 W"
b10 Y"
b0 X"
b1000 &"
b1000 ^"
b100011 ]"
b111000 :"
b1101 4
b110000 I"
b10101011110011010001001000110100 c
b10101011110011010001001000110100 t
b10101011110011010001001000110100 @"
b111110010010000100011 ;"
b111110010010000100011 V"
b111110010010000100011 \"
b110000 <"
b110100 6
b110100 ^
b110100 x
b110100 O"
b100000 >
1:
#370000
0:
#375000
b0 ""
b0 c"
b11010000000000000110010011 w
b11010000000000000110010011 5
b11010000000000000110010011 X
b11010000000000000110010011 y
b0 *"
b0 ["
1,"
1-"
1("
0)"
13"
1z
b1110 4
b1000 #"
b1000 `"
b11 W"
b0 Y"
b1000 &"
b1000 ^"
b11 ]"
b111100 :"
1d
b11 q
0~
b10000000001000 }
b10000000001000 N"
b10000000001000 b"
b11111111111111111111111111111111 C"
b10101011110011010001001000110100 `
b10101011110011010001001000110100 ?"
b1111 b
b1111 >"
b111000 6
b111000 ^
b111000 x
b111000 O"
b100011110000000100000011 ;"
b100011110000000100000011 V"
b100011110000000100000011 \"
b110100 <"
1_
1H"
0K"
b1000 |
b1000 a"
b1000 J"
b110100 I"
b10101011110011010001001000110100 L"
b10000000001000 c
b10000000001000 t
b10000000001000 @"
b100001 >
1:
#380000
0:
#385000
1#
b10101011110011010001001000110100 &
b10101011110011010001001000110100 C
b10101011110011010001001000110100 n
1.
b10000000001000 0
b10000000001000 D
b10000000001000 m
b11 r
b100010 >
1:
#390000
0:
#395000
b100 q
1Q
b10101011110011010001001000110100 S
1%
1J
b10000000001000 R
1/
b100011 >
1:
#400000
0:
#405000
0Q
0J
b1 T
1U
0%
0/
1-
0#
0.
1s
1j
b100 r
b100100 >
1:
#410000
0:
#415000
0s
0j
b0 T
b100101 >
1:
#420000
0:
#425000
b111100 !"
0z
0d
b0 q
0U
1+
b100110 >
1:
#430000
0:
#435000
b0 7"
b0 R"
05"
b110100 6"
b110100 U"
b1010001100010001110001100011 w
b1010001100010001110001100011 5
b1010001100010001110001100011 X
b1010001100010001110001100011 y
b0 $"
b0 d"
0,"
b10 *"
b10 ["
0-"
1("
13"
b110100 8"
b110100 S"
1z
b1111 4
b0 %"
b0 _"
b10100 #"
b10100 `"
b10011 W"
b1 X"
b110100 &"
b110100 ^"
b10011 ]"
b1101100 :"
b11111111 P"
b11111111111111111111111111111111 C"
1~
b11111111111111111111111111111111 }
b11111111111111111111111111111111 N"
b11111111111111111111111111111111 b"
b0 `
b0 ?"
b1 b
b1 >"
1d
b1 q
b111100 6
b111100 ^
b111100 x
b111100 O"
b11010000000000000110010011 ;"
b11010000000000000110010011 V"
b11010000000000000110010011 \"
b111000 <"
1E"
b0 G"
0_
0H"
1a
1D"
1K"
b10 |
b10 a"
b10 J"
b111000 I"
b0 L"
b0 r
0-
0+
b100111 >
1:
#440000
0:
#445000
11
b10000000001000 3
b10000000001000 E
b10000000001000 l
b1 r
b101000 >
1:
#450000
0:
#455000
b10 q
b1 L
1M
b10000000001000 K
12
b101001 >
1:
#460000
0:
#465000
b0 L
02
1)
01
b10 r
b101010 >
1:
#470000
0:
#475000
b1000000 !"
b110100 }
b110100 N"
b110100 b"
0z
b110100 C"
b110100 P"
0d
b0 q
b10101011110011010001001000110100 k
b10101011110011010001001000110100 u
0M
1'
b10101011110011010001001000110100 *
b10101011110011010001001000110100 O
b10101011110011010001001000110100 \
b101011 >
1:
#480000
0:
